  <svg
    xmlns="http://www.w3.org/2000/svg"
    width="26px"
    height="33px"
    viewBox="0 0 20 23"
    style="fill: #09A965;"
  >
    <g>
      <path d="M18.76 4.557A35.368 35.368 0 0 1 10.229.92a.446.446 0 0 0-.456 0A34.4 34.4 0 0 1 1.24 4.557a.45.45 0 0 0-.33.435v4.606c0 4.743 2.177 7.882 4.003 9.68C6.878 21.216 9.17 22.287 10 22.287c.832 0 3.122-1.071 5.088-3.007 1.826-1.799 4.003-4.938 4.003-9.681V4.992a.45.45 0 0 0-.33-.435zm-.566 5.04c0 4.43-2.03 7.36-3.734 9.038-1.933 1.904-4 2.75-4.46 2.75-.46 0-2.527-.846-4.46-2.75-1.703-1.678-3.734-4.607-3.734-9.037V5.334A35.224 35.224 0 0 0 10 1.83a36.34 36.34 0 0 0 8.194 3.504v4.264z"/>
      <path d="M5.87 5.433c-.086-.235-.334-.35-.553-.258-.763.322-1.545.618-2.326.88a.455.455 0 0 0-.3.437v1.765c0 .253.192.457.427.457.236 0 .427-.204.427-.457V6.826c.7-.243 1.4-.512 2.085-.8a.468.468 0 0 0 .24-.593zM7.144 5.5a.527.527 0 0 0 .213-.045l.01-.004a.535.535 0 0 0-.428-.977l-.009.003A.534.534 0 0 0 7.144 5.5z"/>
      <path d="M13.678 8.363a.55.55 0 0 1 .791 0 .578.578 0 0 1 0 .806L8.961 14.78a.55.55 0 0 1-.791 0L5.53 12.092a.578.578 0 0 1 0-.806.55.55 0 0 1 .791 0L8.25 13.25a.443.443 0 0 0 .632 0l4.797-4.886z"/>
    </g>
  </svg>