<svg width="14px" height="14px" viewBox="0 0 14 14" version="1.1" xmlns="http://www.w3.org/2000/svg">
  <title>linkedin</title>
  <desc>Created with Sketch.</desc>

  <defs>
    <path d="M0.226676947,4.64864865 L3.13030069,4.64864865 L3.13030069,14 L0.226676947,14 L0.226676947,4.64864865 Z M1.68388589,0 C2.61218196,0 3.36777178,0.756756757 3.36777178,1.68648649 C3.36777178,2.61621622 2.61218196,3.37297297 1.68388589,3.37297297 C0.750192753,3.37297297 0,2.61621622 0,1.68648649 C0,0.756756757 0.750192753,0 1.68388589,0 Z M4.95451041,4.64864865 L7.73400154,4.64864865 L7.73400154,5.92972973 L7.77178103,5.92972973 C8.16037008,5.19459459 9.10485736,4.42162162 10.5188897,4.42162162 C13.4548959,4.42162162 14,6.35675676 14,8.87567568 L14,14 L11.1017733,14 L11.1017733,9.45405405 C11.1017733,8.36756757 11.0855821,6.97297297 9.59599075,6.97297297 C8.0848111,6.97297297 7.85813416,8.15675676 7.85813416,9.37297297 L7.85813416,14 L4.95990748,14 L4.95990748,4.64864865 L4.95451041,4.64864865 Z" id="path-1">
    </path>
  </defs>

  <g id="Page-1" stroke="none" stroke-width="1" fill="none" fill-rule="evenodd">
    <g id="2.0_1_W_user-popup" transform="translate(-1147.000000, -505.000000)">
      <g id="Group-3" transform="translate(818.000000, 490.000000)">
        <g id="Group-9" transform="translate(318.000000, 0.000000)">
          <g id="Group-38" transform="translate(11.000000, 15.000000)">
            <g id="linkedin">
              <mask id="mask-2" fill="white">
                <use xlink:href="#path-1"></use>
              </mask>
              <use id="Linkedin" fill="#AABACC" xlink:href="#path-1">
              </use>
            </g>
          </g>
        </g>
      </g>
    </g>
  </g>
</svg>