<svg xmlns="http://www.w3.org/2000/svg" width="49" height="48" viewBox="0 0 49 48">
    <g fill="none" fill-rule="evenodd">
        <path stroke="#4788C7" stroke-width=".959" d="M1.919.48c-.795 0-1.44.644-1.44 1.439V37.44c0 .795.645 1.44 1.44 1.44h34.53c.794 0 1.439-.645 1.439-1.44V1.92c0-.795-.645-1.44-1.44-1.44H1.919z"/>
        <path fill="#B6DCFE" stroke="#4788C7" stroke-width=".959" d="M.48 5.28h37.408V1.92c0-.795-.645-1.44-1.44-1.44H1.919C1.125.48.48 1.125.48 1.92V5.28z"/>
        <path fill="#DFF0FE" d="M5.765 14.4h4.776c.535 0 .97.434.97.969v9.591H4.795v-9.591c0-.535.434-.969.969-.969z"/>
        <path fill="#4788C7" d="M4.796 29.76H22.06v.96H4.796zM4.796 32.64h12.469v1H4.796z"/>
        <path fill="#DFF0FE" d="M25.908 14.4h4.776c.535 0 .97.434.97.969v9.591h-6.715v-9.591c0-.535.434-.969.969-.969z"/>
        <path fill="#B6DCFE" d="M15.357 10.56h4.776c.535 0 .969.434.969.969V24.96h-6.714V11.529c0-.535.434-.969.969-.969z"/>
        <g stroke="#4788C7">
            <path fill="#98CCFD" stroke-linecap="round" stroke-linejoin="round" stroke-width=".941" d="M30.79 38.55l-.007-.007a5.733 5.733 0 0 1-.17-.164l-.098-.098a2.588 2.588 0 0 0-.187-.168l-.007-.006a1.739 1.739 0 0 1-.114-.103l-.328-.355-8.423 8.239.362.336.461.427.703.687 8.413-8.23-.379-.335a2.197 2.197 0 0 1-.114-.111l-.014-.015a4.019 4.019 0 0 0-.099-.098z"/>
            <path fill="#DFF0FE" stroke-width="1.117" d="M37.31 40.951c5.643-.006 10.215-4.429 10.221-9.887 0-5.46-4.575-9.887-10.22-9.887-5.645 0-10.22 4.427-10.22 9.887-.001 5.46 4.575 9.887 10.22 9.887z"/>
        </g>
    </g>
</svg>
