<svg xmlns="http://www.w3.org/2000/svg" xmlns:xlink="http://www.w3.org/1999/xlink" width="50" height="46" viewBox="0 0 50 46">
    <defs>
        <path id="a" d="M.004.015H34v33.318H.004z"/>
    </defs>
    <g fill="none" fill-rule="evenodd">
        <path fill="#4788C7" d="M16.5 0C7.402 0 0 7.402 0 16.5 0 25.598 7.402 33 16.5 33 25.598 33 33 25.598 33 16.5 33 7.402 25.598 0 16.5 0z"/>
        <path fill="#DFF0FE" d="M16.5 31.899c-8.492 0-15.399-6.907-15.399-15.399 0-8.492 6.907-15.399 15.399-15.399 8.492 0 15.399 6.907 15.399 15.399 0 8.492-6.907 15.399-15.399 15.399z"/>
        <path fill="#4788C7" d="M17.05 14.311V8.733a.552.552 0 0 0-1.1 0v5.578a2.199 2.199 0 0 0-1.572 1.572H10.45a.551.551 0 0 0 0 1.1h3.93a2.196 2.196 0 0 0 2.121 1.65 2.2 2.2 0 0 0 2.2-2.2 2.198 2.198 0 0 0-1.65-2.122zm-.55 3.223a1.1 1.1 0 1 1 0 0zM16.5 5.433a.55.55 0 0 0 .55-.55v-.548a.55.55 0 1 0-1.1 0v.548c0 .306.247.55.55.55zM28.601 15.883h-.55a.55.55 0 0 0 0 1.1h.55a.549.549 0 0 0 .548-.55.548.548 0 0 0-.548-.55zM4.95 15.883h-.551a.548.548 0 0 0-.548.55c0 .303.244.55.548.55h.55a.551.551 0 0 0 0-1.1zM24.667 7.488l-.39.389a.552.552 0 0 0 .779.779l.39-.39a.551.551 0 0 0-.78-.778zM7.944 24.213l-.39.386a.552.552 0 0 0 .78.78l.389-.39a.549.549 0 0 0 0-.776.548.548 0 0 0-.779 0zM25.056 24.213a.546.546 0 0 0-.779 0 .549.549 0 0 0 0 .776l.39.39a.554.554 0 0 0 .779 0 .552.552 0 0 0 0-.78l-.39-.386zM8.333 7.488a.55.55 0 0 0-.779.778l.39.39a.554.554 0 0 0 .779 0 .552.552 0 0 0 0-.78l-.39-.388z"/>
        <g>
            <g transform="translate(16 12)">
                <mask id="b" fill="#fff">
                    <use xlink:href="#a"/>
                </mask>
                <path fill="#98CCFD" d="M11.863 21.873c1.076 0 11.512-2.412 11.512-5.404 0-1.79-5.453-4.12-3.936-5.237.928-.683 1.89-3.082 1.982-3.44.363-1.407-.133-3.233-.595-4.016-.163-.276-.237-.558-.459-.576-.185-.015-1.082-1.23-2.497-2.011-1.016-.56-1.847-1.167-4.972.31-5.572 2.634-3.912 6.769-2.872 8.483.376.62.965.153.687.27-2.717 1.144-4.368 3.571-5.4 6.217a10.469 10.469 0 0 0-.566 2.473c-.074.819-.005 1.583.125 1.895.22.53.103 1.246.44 2.106 1.442 3.664 3.285-1.07 6.551-1.07z" mask="url(#b)"/>
                <path fill="#FFF" d="M11.863 21.873c1.076 0 11.512-2.412 11.512-5.404 0-1.79-4.461-4.022-2.944-5.138.328-.241-.416.546-2.749 1.074-1.205.273-3.32.59-4.999 0-1.082-.38-1.744-1.837-2.665-1.594-2.715.716-4.348 4.741-4.706 5.658a10.469 10.469 0 0 0-.565 2.473c-.074.819-.005 1.583.125 1.895.22.53.103 1.246.44 2.106 1.442 3.664 3.285-1.07 6.551-1.07z" mask="url(#b)"/>
                <path fill="#4788C7" d="M28.552 18.14a.495.495 0 1 0-.99 0 .629.629 0 0 1-1.256 0 .495.495 0 1 0-.99 0 1.62 1.62 0 0 0 1.618 1.617 1.62 1.62 0 0 0 1.618-1.618" mask="url(#b)"/>
                <path fill="#4788C7" d="M1.39 17.338c-.052-.105.069-.29.146-.392.121-.16.233-.193.317-.193.018 0 .035.001.05.003.228.03.547.28.715.7.04.1.092.263.104.467-.685-.142-1.217-.346-1.333-.585zm26.585-5.493c-.19 1.629-.7 3.022-1.214 3.313-.584.33-1.93.394-2.942-.346-1.013-.74-1.35-2.072-.975-3.852a.597.597 0 0 1 .34-.413c2.477-1.134 3.905-1.505 4.436-1.505.08 0 .14.009.18.024.159.17.368 1.136.175 2.78zm4.726 5.88l-1.392-.446a.583.583 0 0 1-.376-.38 8.978 8.978 0 0 0-1.317-2.604 9.555 9.555 0 0 0-.88-1.038c.206-.9.318-1.92.303-2.802-.02-1.26-.272-2-.77-2.26-.268-.141-1.083-.568-5.497 1.452a1.606 1.606 0 0 0-.293.174c-.297-.08-.601-.153-.907-.22l-.112-.023a6.74 6.74 0 0 0 .606-2.506.495.495 0 1 0-.99-.044 5.748 5.748 0 0 1-3.766 5.147 14.35 14.35 0 0 0-3.983 0 5.728 5.728 0 0 1-2.084-1.331 5.726 5.726 0 0 1-1.688-4.075c0-1.54.6-2.987 1.688-4.076a5.726 5.726 0 0 1 4.076-1.688c1.54 0 2.987.6 4.075 1.688.438.438.8.937 1.075 1.484a.495.495 0 0 0 .884-.445 6.746 6.746 0 0 0-1.259-1.739A6.71 6.71 0 0 0 15.32.015a6.71 6.71 0 0 0-4.776 1.978 6.709 6.709 0 0 0-1.978 4.775c0 1.804.703 3.5 1.978 4.776a6.75 6.75 0 0 0 1.192.949c-.307.08-.613.17-.915.27a.495.495 0 1 0 .314.94 13.28 13.28 0 0 1 8.37 0 .494.494 0 1 0 .313-.94c-.302-.1-.607-.19-.915-.27a6.747 6.747 0 0 0 2.055-2.008 18.964 18.964 0 0 1 .935.207l-.016.064c-.241 1.146-.226 2.158.047 3.01a3.582 3.582 0 0 0 1.312 1.845c.738.54 1.628.773 2.435.773.608 0 1.167-.132 1.579-.365.465-.264.854-.819 1.163-1.652a7.989 7.989 0 0 1 1.577 2.829c.153.487.534.87 1.018 1.026l1.393.446c.365.117.61.453.61.837v2.31c0 .383-.245.72-.61.836l-2.244.719a1.529 1.529 0 0 0-.856.695c-.881 1.523-2.267 2.784-4.12 3.746a.775.775 0 0 0-.406.547l-.719 3.805a.222.222 0 0 1-.218.18H21.5a.222.222 0 0 1-.218-.18l-.398-2.103a.777.777 0 0 0-.884-.625 20.686 20.686 0 0 1-5.35.1.784.784 0 0 0-.858.63l-.378 1.998a.222.222 0 0 1-.219.18H10.86a.223.223 0 0 1-.219-.182l-.692-3.593a.777.777 0 0 0-.4-.54c-3.156-1.686-4.825-4.502-4.825-8.143 0-1.84.402-3.467 1.196-4.836.741-1.277 1.823-2.333 3.216-3.14a.495.495 0 0 0-.495-.856c-2.702 1.563-4.33 3.973-4.78 7.035l-.142-.013a2.463 2.463 0 0 0-.182-.988c-.287-.713-.876-1.228-1.502-1.312-.493-.066-.962.144-1.288.574-.472.624-.395 1.117-.247 1.421.25.514.89.877 1.953 1.105-.03.044-.062.088-.097.132-.628.788-1.368.962-1.848.979a.52.52 0 0 0-.507.517v.002c0 .278.22.504.496.517l.112.002c.608 0 1.584-.224 2.521-1.4.148-.185.269-.38.361-.583a13.4 13.4 0 0 0 .27.027c-.017.268-.027.54-.027.817 0 2.06.491 3.897 1.46 5.46.893 1.441 2.172 2.62 3.802 3.508l.673 3.494c.108.571.609.986 1.19.986h2.337c.582 0 1.083-.415 1.191-.986l.342-1.807c.71.075 1.446.114 2.19.114 1.02 0 2.038-.072 3.03-.212l.361 1.905c.109.572.61.986 1.191.986h2.337c.582 0 1.082-.415 1.19-.986l.7-3.705c1.977-1.045 3.467-2.418 4.43-4.082a.54.54 0 0 1 .3-.248l2.244-.718A1.863 1.863 0 0 0 34 21.814v-2.31c0-.815-.522-1.53-1.299-1.779z" mask="url(#b)"/>
            </g>
            <path fill="#FFF" d="M31.747 19.17v1.84c.47-.087.767-.366.767-.864 0-.55-.34-.793-.767-.976zm-.41-1.134v-1.588c-.489.061-.838.28-.838.733 0 .497.376.68.838.855zm-.052 3.838c-1.082-.018-1.815-.602-1.815-1.03 0-.21.183-.497.401-.497.288 0 .524.61 1.414.68v-2.05c-.786-.278-1.658-.592-1.658-1.709 0-1.099.829-1.535 1.658-1.622v-.253c0-.105.104-.2.253-.2.13 0 .261.095.261.2v.235c.593.018 1.43.201 1.43.628 0 .166-.121.498-.383.498-.21 0-.436-.28-1.047-.323v1.77c.76.28 1.588.663 1.588 1.85 0 1.072-.646 1.665-1.588 1.796v.297c0 .105-.13.2-.261.2-.149 0-.253-.095-.253-.2v-.27z"/>
        </g>
    </g>
</svg>
