<svg xmlns="http://www.w3.org/2000/svg" width="52" height="47" viewBox="0 0 52 47">
    <g fill="none" fill-rule="evenodd">
        <path fill="#DFF0FE" stroke="#4788C7" stroke-width=".686" d="M1.9 5.139c-.86 0-1.557.697-1.557 1.557v27.853c0 .86.697 1.557 1.557 1.557h22.673c.86 0 1.557-.697 1.557-1.557V6.696c0-.86-.697-1.557-1.557-1.557H1.9z"/>
        <path fill="#4788C7" d="M5.114 11.933c-.55 0-.995.424-.995.947 0 .523.445.946.995.946.824.001 1.514.598 1.592 1.378.078.781-.48 1.491-1.29 1.64v.474a.296.296 0 0 1-.302.288.296.296 0 0 1-.303-.288v-.474c-.753-.139-1.297-.766-1.298-1.495 0-.159.136-.288.303-.288.167 0 .303.129.303.288 0 .518.438.94.983.946h.024c.543-.011.976-.435.972-.952-.003-.516-.441-.935-.984-.94-.825 0-1.514-.597-1.592-1.378-.079-.781.48-1.491 1.289-1.64v-.418c0-.16.136-.288.303-.288.167 0 .303.129.303.288v.418c.752.139 1.296.766 1.297 1.495 0 .159-.135.288-.303.288a.296.296 0 0 1-.302-.288c0-.523-.446-.946-.995-.947zM9.345 10.423h12.912v1H9.345zM9.345 13.237h12.912v1H9.345zM9.345 16.05h12.912v1H9.345zM9.345 18.864h6.149v1H9.345z"/>
        <g>
            <path fill="#FFF" stroke="#4788C7" stroke-width=".846" d="M13.245.423c-.815 0-1.476.661-1.476 1.477v35.527c0 .815.66 1.476 1.476 1.476h28.346c.816 0 1.477-.66 1.477-1.476V1.9c0-.816-.661-1.477-1.477-1.477H13.245z"/>
            <path fill="#B6DCFE" stroke="#4788C7" stroke-width=".846" d="M11.769 5.332h31.299V1.9c0-.816-.661-1.477-1.477-1.477H13.245c-.815 0-1.476.661-1.476 1.477v3.432z"/>
            <path fill="#4788C7" d="M17.28 11.302c-.738 0-1.338.579-1.338 1.291 0 .713.6 1.29 1.339 1.29 1.11.002 2.037.815 2.142 1.88.106 1.065-.645 2.033-1.735 2.236v.647a.4.4 0 0 1-.407.392.4.4 0 0 1-.408-.392v-.647c-1.012-.19-1.744-1.044-1.746-2.039a.4.4 0 0 1 .408-.392.4.4 0 0 1 .407.392c.001.706.59 1.281 1.322 1.29h.033c.73-.015 1.313-.593 1.309-1.298-.004-.704-.594-1.275-1.325-1.282-1.11-.001-2.037-.814-2.142-1.88-.106-1.064.645-2.032 1.734-2.235v-.57a.4.4 0 0 1 .408-.393.4.4 0 0 1 .407.393v.57c1.013.19 1.745 1.044 1.746 2.038a.4.4 0 0 1-.407.393.4.4 0 0 1-.408-.393c0-.712-.6-1.29-1.338-1.29zM22.692 10.487h15.68v1h-15.68zM22.692 13.983h15.68v1h-15.68zM22.692 17.478h7.466v1h-7.466z"/>
        </g>
        <g>
            <path fill="#4788C7" d="M25.527 33.571c0 .302.238.543.535.543h2.29c.271 5.388 4.56 9.723 9.877 9.97v2.373c0 .302.238.543.535.543a.537.537 0 0 0 .535-.543V44.08c5.272-.302 9.503-4.61 9.773-9.965h2.393a.537.537 0 0 0 .535-.543.537.537 0 0 0-.535-.542h-2.393c-.27-5.355-4.5-9.663-9.773-9.965v-2.378a.537.537 0 0 0-.535-.543.537.537 0 0 0-.535.543v2.373c-5.322.246-9.606 4.582-9.876 9.97h-2.29a.537.537 0 0 0-.536.542z"/>
            <path fill="#DFF0FE" stroke="#DFF0FE" stroke-width=".5" d="M29.412 33.352c.119-5.103 4.24-9.22 9.298-9.22 5.132 0 9.303 4.238 9.303 9.44 0 5.206-4.176 9.438-9.303 9.438-5.057 0-9.185-4.116-9.298-9.22a.587.587 0 0 0 .048-.219.5.5 0 0 0-.048-.219z"/>
            <path fill="#4788C7" d="M34.096 38.702a20.474 20.474 0 0 1 2.615-1.573.673.673 0 0 0 .367-.598v-2.63c0-.182-.092-.351-.238-.45a.683.683 0 0 1-.302-.57v-2.73c0-1.058.848-1.913 1.885-1.913h.578c1.043 0 1.886.86 1.886 1.913v2.73c0 .23-.113.444-.303.57a.533.533 0 0 0-.237.45v2.63c0 .252.146.488.367.598a20.103 20.103 0 0 1 2.712 1.65.528.528 0 0 0 .746-.132.544.544 0 0 0-.13-.757 22.69 22.69 0 0 0-2.631-1.617v-2.11c.34-.328.54-.794.54-1.282v-2.73c0-1.655-1.323-2.998-2.955-2.998h-.578c-1.632 0-2.955 1.343-2.955 2.998v2.73c0 .488.2.948.54 1.282v2.11c-.48.253-1.453.784-2.523 1.54a.55.55 0 0 0-.135.757.533.533 0 0 0 .75.132z"/>
        </g>
    </g>
</svg>
