<svg xmlns="http://www.w3.org/2000/svg" width="48" height="42" viewBox="0 0 48 42">
    <g fill="none" fill-rule="evenodd">
        <g>
            <path fill="#DFF0FE" d="M0 30.411h37.104v3.492a1.77 1.77 0 0 1-1.77 1.77H1.77A1.77 1.77 0 0 1 0 33.903V30.41z"/>
            <rect width="36.219" height="35.068" x=".442" y=".442" stroke="#4788C7" stroke-width=".885" rx="1.77"/>
            <path fill="#98CCFD" stroke="#4788C7" stroke-width=".885" d="M.442 5.678h36.22V1.77c0-.733-.595-1.328-1.328-1.328H1.77C1.037.442.442 1.037.442 1.77v3.908z"/>
            <g transform="translate(6.335 11.628)">
                <rect width="2.715" height="2.631" fill="#B6DCFE" rx=".5"/>
                <rect width="2.715" height="2.631" x="5.43" fill="#B6DCFE" rx=".5"/>
                <rect width="2.715" height="2.631" x="10.86" fill="#B6DCFE" rx=".5"/>
                <rect width="2.715" height="2.631" x="16.29" fill="#B6DCFE" rx=".5"/>
                <rect width="2.715" height="2.631" x="21.719" fill="#B6DCFE" rx=".5"/>
                <rect width="2.715" height="2.631" y="5.261" fill="#B6DCFE" rx=".5"/>
                <rect width="2.715" height="2.631" x="5.43" y="5.261" fill="#B6DCFE" rx=".5"/>
                <rect width="2.715" height="2.631" x="10.86" y="5.261" fill="#8BC0F2" rx=".5"/>
                <rect width="2.715" height="2.631" x="16.29" y="5.261" fill="#B6DCFE" rx=".5"/>
                <rect width="2.715" height="2.631" x="21.719" y="5.261" fill="#B6DCFE" rx=".5"/>
                <rect width="2.715" height="2.631" y="10.523" fill="#B6DCFE" rx=".5"/>
                <rect width="2.715" height="2.631" x="5.43" y="10.523" fill="#B6DCFE" rx=".5"/>
                <rect width="2.715" height="2.631" x="10.86" y="10.523" fill="#B6DCFE" rx=".5"/>
                <rect width="2.715" height="2.631" x="16.29" y="10.523" fill="#B6DCFE" rx=".5"/>
                <rect width="2.715" height="2.631" x="21.719" y="10.523" fill="#B6DCFE" rx=".5"/>
            </g>
        </g>
        <path fill="#4788C7" d="M45.677 25.235h-.98a10.929 10.929 0 0 0-1.096-2.619l.692-.684a1.32 1.32 0 0 0 .393-.942c0-.358-.14-.693-.393-.943l-2.211-2.186c-.51-.504-1.399-.504-1.909 0l-.691.684a11.132 11.132 0 0 0-2.65-1.083v-.97c0-.735-.605-1.332-1.349-1.332h-3.126c-.744 0-1.349.597-1.349 1.333v.97c-.929.245-1.815.609-2.65 1.082l-.692-.684c-.51-.504-1.398-.504-1.908 0l-2.21 2.186a1.32 1.32 0 0 0-.395.943c0 .357.14.691.394.942l.693.684c-.48.822-.847 1.7-1.096 2.619h-.98c-.745 0-1.35.597-1.35 1.333v3.09c0 .735.605 1.333 1.35 1.333h.98c.25.918.616 1.794 1.096 2.619l-.693.683a1.326 1.326 0 0 0 0 1.889l2.211 2.183c.51.503 1.399.503 1.908 0l.693-.684c.834.473 1.722.836 2.65 1.084v.968c0 .735.604 1.332 1.348 1.332h3.126c.744 0 1.348-.597 1.348-1.332v-.968c.93-.248 1.816-.611 2.65-1.084l.692.684c.51.503 1.399.503 1.911 0l2.209-2.183c.253-.253.396-.589.396-.944 0-.356-.143-.692-.396-.945l-.692-.683c.479-.825.846-1.701 1.097-2.62h.98c.743 0 1.347-.597 1.347-1.332v-3.09c0-.736-.604-1.333-1.348-1.333z"/>
        <path fill="#B6DCFE" stroke="#B6DCFE" stroke-width=".5" d="M46.056 29.658a.378.378 0 0 1-.379.374h-1.744l-.088.37a9.91 9.91 0 0 1-1.268 3.03l-.204.323 1.232 1.218c.15.145.15.382 0 .53l-2.208 2.183a.382.382 0 0 1-.536 0l-1.233-1.219-.327.202a10.158 10.158 0 0 1-3.064 1.253l-.375.087v1.724c0 .206-.17.375-.379.375h-3.126a.378.378 0 0 1-.38-.375v-1.724l-.374-.087a10.119 10.119 0 0 1-3.062-1.253l-.327-.202-1.233 1.219a.385.385 0 0 1-.538 0l-2.208-2.184a.373.373 0 0 1 0-.53l1.232-1.217-.204-.324a9.91 9.91 0 0 1-1.268-3.029l-.087-.37h-1.745a.376.376 0 0 1-.377-.374v-3.09c0-.206.169-.375.377-.375h1.745l.087-.37a9.923 9.923 0 0 1 1.268-3.026l.204-.324-1.232-1.218a.375.375 0 0 1 0-.531l2.208-2.184a.385.385 0 0 1 .538 0l1.233 1.218.327-.201a10.134 10.134 0 0 1 3.062-1.254l.374-.086v-1.724c0-.206.171-.373.38-.373h3.126c.209 0 .38.167.38.373v1.724l.374.086c1.085.25 2.116.67 3.064 1.254l.327.201 1.233-1.218a.382.382 0 0 1 .536 0l2.208 2.184a.37.37 0 0 1 0 .53l-1.232 1.22.204.323a9.863 9.863 0 0 1 1.268 3.026l.088.37h1.744c.208 0 .38.169.38.375v3.09z"/>
        <g stroke="#4788C7" stroke-width=".513" transform="translate(26.063 20.316)">
            <ellipse cx="7.635" cy="7.546" fill="#DFF0FE" rx="6.929" ry="6.848"/>
            <ellipse cx="7.635" cy="7.546" fill="#FFF" rx="3.08" ry="3.044"/>
        </g>
    </g>
</svg>
