<svg xmlns="http://www.w3.org/2000/svg" width="19" height="16" viewBox="0 0 19 16">
    <path fill="#FFF" fill-rule="evenodd" d="M3.216 8.955l5.37 5.418a.957.957 0 0 1 0 1.344.937.937 0 0 1-1.332 0L.591 8.995a.954.954 0 0 1-.082-.094A.797.797 0 0 1 0 8.158v-.316c0-.343.216-.635.52-.747a.957.957 0 0 1 .07-.08L7.255.286a.935.935 0 0 1 1.333 0 .958.958 0 0 1 0 1.346L3.226 7.045h14.977c.44 0 .797.357.797.797v.316c0 .44-.357.797-.797.797H3.216z"/>
</svg>
