<svg xmlns="http://www.w3.org/2000/svg" width="17" height="17" viewBox="0 0 17 17">
    <path fill="#A01D28" fill-rule="evenodd" d="M0 1.342C0 .601.6 0 1.342 0h14.316C16.399 0 17 .6 17 1.342v14.316c0 .741-.6 1.342-1.342 1.342H1.342C.601 17 0 16.4 0 15.658V1.342zm.895 3.58v10.736c0 .247.2.447.447.447h14.316c.247 0 .447-.2.447-.447V4.92c0-.247-.2-.447-.447-.447H1.342c-.247 0-.447.2-.447.447zm8.947 5.367a1.342 1.342 0 1 1 2.684 0 1.342 1.342 0 0 1-2.684 0zm-7.158 3.132h.895v.895h-.895v-.895zm3.58 0v.895h-.896v-.895h.895zm4.473 0h.895v.895h-.895v-.895zm-2.684 0h.894v.895h-.894v-.895zm-1.79-3.579v.895h-.895v-.895h.895zm-3.579 0h.895v.895h-.895v-.895zm3.58-3.579v.895h-.896v-.895h.895zm2.683 0v.895h-.894v-.895h.894zm1.79 0h.895v.895h-.895v-.895zm3.579 0v.895h-.895v-.895h.895zm-.895 3.58h.895v.894h-.895v-.895zm-4.474 0v.894h-.894v-.895h.894z"/>
</svg>
