<svg xmlns="http://www.w3.org/2000/svg" width="24" height="23" viewBox="0 0 24 23">
    <g fill="#FFF" fill-rule="evenodd">
        <path d="M16.5 23a7.5 7.5 0 1 1 7.5-7.5 7.509 7.509 0 0 1-7.5 7.5zm-2.575-7.84l-.823.824 2.194 2.194 4.938-4.663-.823-.823-4.115 3.84-1.371-1.371z"/>
        <g fill-rule="nonzero">
            <path d="M.76 16.125V5.25h17.48v3.375H19v-5.25c-.001-1.035-.851-1.874-1.9-1.875h-2.66v-.375C14.44.504 13.93 0 13.3 0c-.63 0-1.14.504-1.14 1.125V1.5H6.84v-.375C6.84.504 6.33 0 5.7 0c-.63 0-1.14.504-1.14 1.125V1.5H1.9C.851 1.501.001 2.34 0 3.375v12.75C.001 17.16.851 17.999 1.9 18h7.6v-.75H1.9c-.63 0-1.14-.504-1.14-1.125zm12.16-15c0-.207.17-.375.38-.375s.38.168.38.375v1.5c0 .207-.17.375-.38.375a.378.378 0 0 1-.38-.375v-1.5zm-7.6 0c0-.207.17-.375.38-.375s.38.168.38.375v1.5c0 .207-.17.375-.38.375a.378.378 0 0 1-.38-.375v-1.5zM1.9 2.25h2.66v.375c0 .621.51 1.125 1.14 1.125.63 0 1.14-.504 1.14-1.125V2.25h5.32v.375c0 .621.51 1.125 1.14 1.125.63 0 1.14-.504 1.14-1.125V2.25h2.66c.63 0 1.14.504 1.14 1.125V4.5H.76V3.375c0-.621.51-1.125 1.14-1.125z"/>
            <path d="M5.938 8.1c0-.497-.4-.9-.891-.9H3.266a.895.895 0 0 0-.891.9v1.8c0 .497.399.9.89.9h1.782c.492 0 .89-.403.89-.9V8.1zM3.265 9.9V8.1h1.78v1.8h-1.78zM10.5 8.1c0-.497-.399-.9-.89-.9H7.827a.895.895 0 0 0-.89.9v1.8c0 .497.398.9.89.9H9.61c.492 0 .891-.403.891-.9V8.1zM7.828 9.9V8.1H9.61v1.8H7.83zM15.063 9.45V8.1c0-.497-.4-.9-.891-.9H12.39a.895.895 0 0 0-.891.9v1.8c0 .497.399.9.89.9h.891v-.9h-.89V8.1h1.78v1.35h.892zM5.047 12H3.266a.895.895 0 0 0-.891.9v1.8c0 .497.399.9.89.9h1.782c.492 0 .89-.403.89-.9v-1.8c0-.497-.398-.9-.89-.9zm-1.781 2.7v-1.8h1.78v1.8h-1.78zM9.61 12H7.827a.895.895 0 0 0-.89.9v1.8c0 .497.398.9.89.9H9.61c.492 0 .891-.403.891-.9v-1.8c0-.497-.399-.9-.89-.9zm-1.782 2.7v-1.8H9.61v1.8H7.83z"/>
        </g>
    </g>
</svg>
