<svg xmlns="http://www.w3.org/2000/svg" width="29" height="29" viewBox="0 0 29 29">
    <g fill="none" fill-rule="evenodd" transform="translate(1 1)">
        <circle cx="13.5" cy="13.5" r="13.5" stroke="#FFF" stroke-width=".9" opacity=".5"/>
        <path fill="#FFF" d="M10.62 14.042h5.76V12.6h-5.76v1.442zm-2.952-.721a2.921 2.921 0 0 1 2.953-2.953h2.158V9h-2.158A4.333 4.333 0 0 0 6.3 13.32a4.334 4.334 0 0 0 4.32 4.322h2.16V16.27h-2.16a2.918 2.918 0 0 1-2.952-2.95zM16.379 9h-2.158v1.368h2.158a2.921 2.921 0 0 1 2.953 2.953 2.918 2.918 0 0 1-2.953 2.95h-2.158v1.37h2.158a4.334 4.334 0 0 0 4.321-4.32A4.333 4.333 0 0 0 16.38 9z"/>
    </g>
</svg>
