<?xml version="1.0" encoding="UTF-8" standalone="no"?>
<svg width="158px" height="120px" viewBox="0 0 158 120" version="1.1" xmlns="http://www.w3.org/2000/svg" xmlns:xlink="http://www.w3.org/1999/xlink">
    <!-- Generator: Sketch 50.2 (55047) - http://www.bohemiancoding.com/sketch -->
    <title>empty_Business</title>
    <desc>Created with Sketch.</desc>
    <defs>
        <linearGradient x1="0%" y1="100%" x2="100%" y2="0%" id="linearGradient-1">
            <stop stop-color="#2F6DB7" offset="0%"></stop>
            <stop stop-color="#3E94D1" offset="100%"></stop>
        </linearGradient>
    </defs>
    <g id="home-page" stroke="none" stroke-width="1" fill="none" fill-rule="evenodd">
        <g id="empty_Business" transform="translate(-109.000000, -976.000000)">
            <g id="Group-4" transform="translate(108.000000, 976.000000)">
                <g id="empty_Broadband">
                    <g id="Group-3">
                        <path d="M143.980309,53.612656 C147.412773,57.0448808 150.016955,61.3977396 151.363574,66.4233865 C155.453147,81.685882 146.395704,97.3738333 131.133208,101.463407 L69.0666572,118.094089 C53.8041618,122.183662 38.1162104,113.126219 34.0266371,97.8637239 C32.7536837,93.1129969 32.7545155,88.3210485 33.8197765,83.8504942 C19.6224187,85.9779368 5.78346046,77.1499545 1.97948517,62.9533255 C-2.11008815,47.6908301 6.94735479,32.0028787 22.2098502,27.9133054 L122.570454,1.02176277 C137.832949,-3.06781055 153.5209,5.98963239 157.610474,21.2521278 C161.068623,34.1581179 155.126104,47.368327 143.980309,53.612656 Z" id="Combined-Shape" fill="url(#linearGradient-1)" opacity="0.05" transform="translate(79.794979, 59.557926) rotate(-180.000000) translate(-79.794979, -59.557926) "></path>
                        <g id="Group-62" transform="translate(44.090909, 22.800000)">
                            <g id="1">
                                <g id="Group-32" transform="translate(0.000000, 1.726900)">
                                    <path d="M3,0.65 C1.70213084,0.65 0.65,1.70213084 0.65,3 L0.65,64.9707918 C0.65,66.268661 1.70213084,67.3207918 3,67.3207918 L62.9554731,67.3207918 C64.2533423,67.3207918 65.3054731,66.268661 65.3054731,64.9707918 L65.3054731,3 C65.3054731,1.70213084 64.2533423,0.65 62.9554731,0.65 L3,0.65 Z" id="Rectangle-27" stroke-opacity="0.7" stroke="#2F6DB7" stroke-width="1.3" fill="#FFFFFF"></path>
                                    <path d="M0.65,9.29694514 L65.3054731,9.29694514 L65.3054731,3.31537536 C65.3054731,1.8433292 64.1121439,0.65 62.6400977,0.65 L3.31537536,0.65 C1.8433292,0.65 0.65,1.8433292 0.65,3.31537536 L0.65,9.29694514 Z" id="Rectangle-27" stroke-opacity="0.7" stroke="#2F6DB7" stroke-width="1.3" fill="#EBF4FA"></path>
                                    <path d="M9.91886614,24.8673629 L18.1122099,24.8673629 C19.0369732,24.8673629 19.7866419,25.6170316 19.7866419,26.5417949 L19.7866419,43.1034289 L8.24443414,43.1034289 L8.24443414,26.5417949 C8.24443414,25.6170316 8.99410288,24.8673629 9.91886614,24.8673629 Z" id="Rectangle-4" fill="#2F6DB7" opacity="0.394473805"></path>
                                    <path d="M8.96443414,52.1125499 L8.96443414,52.3303741 L37.204397,52.3303741 L37.204397,52.1125499 L8.96443414,52.1125499 Z" id="Rectangle-5" stroke-opacity="0.7" stroke="#2F6DB7" stroke-width="1.44" fill="#FFFFFF"></path>
                                    <rect id="Rectangle-5" stroke-opacity="0.7" stroke="#2F6DB7" stroke-width="1.44" fill="#FFFFFF" x="8.96443414" y="57.0860225" width="19.9955288" height="1"></rect>
                                    <path d="M44.5454895,24.8673629 L52.7388333,24.8673629 C53.6635966,24.8673629 54.4132653,25.6170316 54.4132653,26.5417949 L54.4132653,43.1034289 L42.8710575,43.1034289 L42.8710575,26.5417949 C42.8710575,25.6170316 43.6207263,24.8673629 44.5454895,24.8673629 Z" id="Rectangle-4" fill="#2F6DB7" opacity="0.394473805"></path>
                                    <path d="M27.4077344,18.2360661 L35.6010782,18.2360661 C36.5258415,18.2360661 37.2755102,18.9857348 37.2755102,19.9104981 L37.2755102,43.1034289 L25.7333024,43.1034289 L25.7333024,19.9104981 C25.7333024,18.9857348 26.4829712,18.2360661 27.4077344,18.2360661 Z" id="Rectangle-4-Copy" fill="#3E94D1" opacity="0.394473805"></path>
                                </g>
                            </g>
                        </g>
                        <ellipse id="Oval" stroke="#3E94D1" stroke-width="2.4" opacity="0.2" transform="translate(29.727273, 80.400000) scale(1, -1) translate(-29.727273, -80.400000) " cx="29.7272727" cy="80.4" rx="5.98484848" ry="6"></ellipse>
                        <ellipse id="Oval-Copy" stroke="#2F6DB7" stroke-width="2.4" opacity="0.2" transform="translate(121.295455, 46.200000) scale(1, -1) translate(-121.295455, -46.200000) " cx="121.295455" cy="46.2" rx="4.18939394" ry="4.2"></ellipse>
                        <ellipse id="Oval" stroke="#3E94D1" stroke-width="2.4" opacity="0.2" cx="136.856061" cy="18.6" rx="2.98939394" ry="3"></ellipse>
                    </g>
                    <g id="Group-2" transform="translate(85.000000, 73.000000)" stroke="#2F6DB7" stroke-opacity="0.7" stroke-width="1.3">
                        <rect id="Rectangle-3" fill="#EBF4FA" transform="translate(8.295942, 21.795942) rotate(-315.000000) translate(-8.295942, -21.795942) " x="6.94594155" y="12.9" width="2.7" height="17.7918831" rx="1.35"></rect>
                        <circle id="Oval-3" fill="#FFFFFF" cx="19" cy="10" r="10"></circle>
                    </g>
                </g>
            </g>
        </g>
    </g>
</svg>