<?xml version="1.0" encoding="UTF-8" standalone="no"?>
<svg width="7px" height="7px" viewBox="0 0 7 7" version="1.1" xmlns="http://www.w3.org/2000/svg" xmlns:xlink="http://www.w3.org/1999/xlink">
    <defs></defs>
    <g id="home-page" stroke="none" stroke-width="1" fill="none" fill-rule="evenodd">
        <g id="notification" transform="translate(-55.000000, -157.000000)" fill="#FFFFFF" stroke="#FFFFFF" stroke-width="0.72">
            <g id="close-copy" transform="translate(52.000000, 154.000000)">
                <polygon id="close"
                         transform="translate(6.500000, 6.500000) rotate(-315.000000) translate(-6.500000, -6.500000) "
                         points="6.76 2.08 6.24 2.08 6.24 6.24 2.08 6.24 2.08 6.76 6.24 6.76 6.24 10.92 6.76 10.92 6.76 6.76 10.92 6.76 10.92 6.24 6.76 6.24"/>
            </g>
        </g>
    </g>
</svg>