<svg xmlns="http://www.w3.org/2000/svg" xmlns:xlink="http://www.w3.org/1999/xlink" width="229" height="183" viewBox="0 0 229 183">
    <defs>
        <path id="a" d="M1.732 7.993l-.34 5.343-1.085 7.858L9.403.261z"/>
        <path id="c" d="M.79 6.637c-1.324 4.63 1.384 9.447 6.048 10.761s9.518-1.374 10.842-6.003c1.323-4.63-1.384-9.447-6.049-10.761A8.818 8.818 0 0 0 9.231.3C5.403.3 1.885 2.803.79 6.637"/>
        <path id="e" d="M3.821 18.304l5.2 2.242c.468.202.945.342 1.423.43L.62.252A7.506 7.506 0 0 0 .086.01L3.82 18.304z"/>
        <path id="g" d="M0 285h285V0H0z"/>
        <path id="i" d="M20.097.053C9.057.053.107 8.43.107 18.763v6.38c0 10.333 8.95 18.71 19.99 18.71h5.298l6.41 4.94-.02-4.94h11.807c11.04 0 19.99-8.377 19.99-18.71v-6.38c0-10.333-8.95-18.71-19.99-18.71"/>
    </defs>
    <g fill="none" fill-rule="evenodd">
        <g transform="translate(-28 -66)">
            <path fill="#97ABC1" fill-opacity=".373" d="M181.492 231.801c-18.144 0-33.533 2.41-38.992 5.754-5.459-3.343-20.848-5.754-38.992-5.754-22.71 0-41.121 3.775-41.121 8.43 0 4.657 18.41 8.431 41.121 8.431 18.144 0 33.533-2.41 38.992-5.753 5.459 3.343 20.848 5.753 38.992 5.753 22.71 0 41.12-3.774 41.12-8.43s-18.41-8.431-41.12-8.431"/>
            <path fill="#B9C9DC" d="M28.685 219.682h227.63v-2.635H28.684z"/>
            <path fill="#FCBF9D" d="M196.364 230.653c.011 1.216-.003 2.521-.704 3.513-.826 1.17-2.35 1.56-3.745 1.87l-6.1 1.348c-.084.313.29.543.601.625 1.556.407 3.195.063 4.779-.217a59.423 59.423 0 0 1 5.543-.717c.826-.067 1.802-.212 2.171-.957.276-.555.085-1.215-.032-1.824-.358-1.857.032-3.802-.368-5.65-.046-.213-.133-.457-.341-.52-.106-.032-.22-.007-.327.023-1.549.43-1.49 1.084-1.477 2.506"/>
            <path fill="#44516C" d="M197.27 235.466c-1.464 1.048-3.002 1.413-4.798 1.318-.11-.006-.717-.095-.827-.099-.087-.338-.076-.676-.356-.645a43.149 43.149 0 0 0-3.828.599c-.402.082-1.94.228-2.08.557-.125.292-.007.646.215.873.222.228.528.352.832.443 1.499.454 3.106.272 4.662.087l5.736-.685c.653-.077 1.339-.168 1.864-.565.771-.584.974-1.665.924-2.633-.09-1.761-1.814.372-2.343.75"/>
            <path fill="#F7F5EF" d="M177.457 131.021l.283 2.647 5.09.662.863-2.807-1.051-.502z"/>
            <path fill="#FCBF9D" d="M166.534 236.036c-.148 1.206-.334 2.498-1.158 3.39-.972 1.05-2.535 1.237-3.959 1.358l-6.224.534c-.123.299.217.576.516.698 1.489.609 3.159.485 4.765.415a59.537 59.537 0 0 1 5.589.02c.828.042 1.815.027 2.278-.662.346-.514.243-1.193.207-1.813-.11-1.887.53-3.765.376-5.65-.018-.217-.072-.47-.27-.56-.1-.045-.217-.035-.327-.02-1.592.223-1.62.877-1.793 2.29"/>
            <path fill="#6EBB9D" d="M196.39 172.307s-.375 14.393-.338 22.278c.037 7.885 6.33 24.224 6.478 28.77.149 4.548-.708 7.238-.708 7.238l-10.955.686-7.782-56.793 13.304-2.179z"/>
            <path fill="#FCBF9D" d="M187.648 123.19c-4.662-1.197-9.41 1.623-10.604 6.299a8.718 8.718 0 0 0-.224 3.005l4.663.587-2.721 4.12a8.663 8.663 0 0 0 4.564 2.922c4.662 1.197 9.41-1.624 10.604-6.3 1.193-4.675-1.62-9.436-6.282-10.633"/>
            <path fill="#FCBF9D" d="M186.085 135.077l-1.197 9.795 5.457 1.618 1.239-12.166z"/>
            <path fill="#82CEB3" d="M197.05 174.045l-21.033-.1c-2.066 8.26-10.495 56.445-11.258 61.359 1.756.257 9.258.822 9.258.822s4.4-5.296 7.94-21.133c3.745-16.75 13.468-35.623 14.21-37.013 1.135-2.129.883-3.935.883-3.935"/>
            <path fill="#44516C" d="M166.802 240.926c-1.589.846-3.161 1.005-4.93.674-.107-.02-.698-.188-.806-.207-.043-.346.013-.68-.269-.686a43.038 43.038 0 0 0-3.873.089c-.41.028-1.954-.03-2.135.277-.163.274-.091.64.099.895s.477.418.766.549c1.427.647 3.044.68 4.61.7l5.777.078c.657.009 1.349.009 1.92-.316.843-.476 1.185-1.521 1.263-2.488.142-1.757-1.848.13-2.422.435"/>
            <path fill="#F9F9F9" d="M181.838 142.396c1.737-.535 10.243-.823 10.243-.823l2.056 16.494 2.913 15.977-21.283-.074 1.36-10.047.33-5.272-7.308 8.16a3.858 3.858 0 0 1-6.083-.428l-11.362-16.959 8.871-4.721 6.8 6.395 13.463-8.702z"/>
            <path fill="#44516C" d="M193.93 133.824c1.193-4.676-1.619-9.437-6.282-10.634-3.04-.78-6.108.154-8.212 2.189l11.681 12.939a8.694 8.694 0 0 0 2.812-4.494"/>
            <path fill="#FCBF9D" d="M190.04 131.523a3.178 3.178 0 0 1-3.173 3.183 3.178 3.178 0 0 1-3.174-3.183 3.178 3.178 0 0 1 3.174-3.182 3.178 3.178 0 0 1 3.174 3.182M161.303 142.481a2.93 2.93 0 0 1-2.925 2.933 2.93 2.93 0 0 1-2.925-2.933 2.93 2.93 0 0 1 2.925-2.933 2.93 2.93 0 0 1 2.925 2.933"/>
            <path fill="#44516C" d="M198.454 122.692a4.09 4.09 0 0 1-4.084 4.095 4.09 4.09 0 0 1-4.083-4.095 4.09 4.09 0 0 1 4.083-4.095 4.09 4.09 0 0 1 4.084 4.095"/>
            <g transform="translate(175.988 151.05)">
                <mask id="b" fill="#fff">
                    <use xlink:href="#a"/>
                </mask>
                <path d="M1.732 7.993l-.34 5.343-1.085 7.858L9.403.261z" mask="url(#b)"/>
            </g>
            <path stroke="#F7F5EF" stroke-width=".57" d="M178.597 176.824l8.65 4.596"/>
            <path fill="#FCBF9D" d="M147.022 126.654a3.16 3.16 0 0 1-3.165 3.155 3.16 3.16 0 0 1-3.166-3.155 3.16 3.16 0 0 1 3.166-3.155 3.16 3.16 0 0 1 3.165 3.155"/>
            <path fill="#44516C" d="M98.586 231.079c-.271 2.33-.528 4.968-2.226 6.651-.65.644-1.464 1.094-2.266 1.535l-4.438 2.44c-.422.232-.894.537-.94 1.015-.062.654.716 1.064 1.373 1.121 1.323.115 2.605-.422 3.823-.948l4.444-1.919a3.585 3.585 0 0 0 2.054-2.371c.377-1.435.66-2.87.876-4.37.11-.773.197-1.568.018-2.328-.168-.717-.617-1.408-1.288-1.705-.682-.301-1.345.141-1.43.879M127.27 230.56c.271 2.331.528 4.968 2.226 6.651.65.645 1.464 1.094 2.266 1.535l4.438 2.44c.422.232.894.537.94 1.015.062.655-.716 1.065-1.373 1.122-1.323.115-2.605-.423-3.823-.949l-4.444-1.918a3.585 3.585 0 0 1-2.054-2.372 38.704 38.704 0 0 1-.876-4.37c-.11-.772-.197-1.567-.018-2.327.168-.718.617-1.408 1.288-1.705.681-.302 1.345.14 1.43.878"/>
            <path fill="#F9F9F9" d="M94.787 150.84l3.694-4.206 1.582 7.886-5.276-3.68zm32.977 17.087l-1.566-15.939 5.276 2.268c3.683 1.583 7.919-.458 8.96-4.317l5.005-18.553-5.54-2.103-7.691 14.68-6.083-7.246a7.576 7.576 0 0 0-6.962-3.773l-17.65.926a8.598 8.598 0 0 0-5.299 2.158l-12.467 11.076c-3.306 2.938-2.38 8.312 1.721 9.981l15.65 6.373 1.056 14.458 25.914-3.856-.324-6.133z"/>
            <path fill="#36A5A1" d="M101.119 168.978l26.645-1.051.791 66.246-7.123.263-4.748-57.045h-4.749l-10.025 56.52H95.58z"/>
            <path fill="#FCBF9D" d="M121.487 125.991c-1.305 4.583-6.09 7.243-10.69 5.943-4.598-1.301-7.268-6.07-5.963-10.652 1.306-4.582 6.091-7.243 10.69-5.942 4.598 1.3 7.268 6.069 5.963 10.651"/>
            <path fill="#FCBF9D" d="M112.718 138.397a3.109 3.109 0 0 1-3.114-3.104v-10.692h6.228v10.692a3.109 3.109 0 0 1-3.114 3.104"/>
            <g transform="translate(104.025 114.713)">
                <mask id="d" fill="#fff">
                    <use xlink:href="#c"/>
                </mask>
                <path fill="#D88A3D" d="M15.107.345c-1.66-2.037-5.799-1.71-8.642-1.634C1.62-1.157-2.203 2.85-2.07 7.66c.099 3.603 2.388 6.634 5.567 7.874 2.265-2.093 3.74-5.775 3.712-9.96 2.601-.277 6.441-3.25 7.898-5.228" mask="url(#d)"/>
            </g>
            <path fill="#FCBF9D" d="M112.198 124.917c-.428 1.556-1.998 2.46-3.507 2.018-1.508-.442-2.383-2.062-1.956-3.618.429-1.556 1.998-2.46 3.507-2.018 1.508.442 2.384 2.061 1.956 3.618"/>
            <path fill="#F7F5EF" d="M115.085 125.385c.109 1.466 1.293 2.622 2.742 2.622s2.634-1.156 2.742-2.622h-5.484z"/>
            <g transform="translate(122.55 133.238)">
                <mask id="f" fill="#fff">
                    <use xlink:href="#e"/>
                </mask>
                <path d="M3.821 18.304l5.2 2.242c.468.202.945.342 1.423.43L.62.252A7.506 7.506 0 0 0 .086.01L3.82 18.304z" mask="url(#f)"/>
            </g>
            <path stroke="#F7F5EF" stroke-width=".57" d="M106.875 173.137l-4.275 4.988M125.4 177.412l-4.275-4.987"/>
            <path fill="#6E7F95" d="M138.567 131.805l6.127 2.47.728-2.864-5.495-2.12zM103.97 156.75l-4.933 6.056 2.375 1.069 4.75-6.056z"/>
            <path fill="#FCBF9D" d="M105.094 165.3a3.207 3.207 0 1 1 0-6.413 3.207 3.207 0 0 1 0 6.413z"/>
            <path fill="#82CEB3" d="M42.038 164.014v24.659c0 7.522 6.252 13.677 13.893 13.677 7.642 0 13.894-6.155 13.894-13.677v-24.659c0-7.522-6.252-13.677-13.894-13.677-7.641 0-13.893 6.155-13.893 13.677z" opacity=".9"/>
            <mask id="h" fill="#fff">
                <use xlink:href="#g"/>
            </mask>
            <path fill="#FFF" d="M55.575 218.025h.585v-60.563h-.585z" mask="url(#h)"/>
            <path fill="#FFF" d="M49.163 175.571l6.723 5.404 7.526-5.11-.25-.382-7.252 4.924-6.386-5.132zM49.163 189.109l6.723 5.403 7.526-5.11-.25-.381-7.252 4.924-6.386-5.132zM49.163 162.034l6.723 5.404 7.526-5.111-.25-.381-7.252 4.924-6.386-5.132z" mask="url(#h)"/>
            <path fill="#48ACA9" d="M230.494 163.875c-7.25 0-13.181 5.917-13.181 13.148v13.604c0 7.231 5.93 13.148 13.18 13.148s13.182-5.917 13.182-13.148v-13.604c0-7.231-5.931-13.148-13.181-13.148" mask="url(#h)" opacity=".9"/>
            <path fill="#FFF" d="M229.425 217.313h.56v-47.025h-.56z" mask="url(#h)"/>
            <path fill="#FFF" d="M223.725 187.684l6.387 5.404 7.15-5.111-.238-.381-6.889 4.924-6.067-5.133zM223.725 174.859l6.387 5.403 7.15-5.11-.238-.381-6.889 4.924-6.067-5.132zM71.25 125.4c-.888-2.542-3.248-4.364-6.028-4.364a6.248 6.248 0 0 0-3.438 1.034c-1.257-3.465-4.505-5.932-8.315-5.932-3.512 0-6.547 2.096-7.985 5.138a6.244 6.244 0 0 0-1.694-.24c-2.78 0-5.14 1.822-6.027 4.364H71.25zM252.225 141.787c-.888-2.542-3.248-4.363-6.028-4.363a6.248 6.248 0 0 0-3.438 1.033c-1.257-3.464-4.505-5.932-8.315-5.932-3.512 0-6.547 2.097-7.985 5.139a6.244 6.244 0 0 0-1.694-.24c-2.78 0-5.14 1.821-6.027 4.363h33.487z" mask="url(#h)"/>
            <path fill="#F9F9F9" d="M163.895 74.1h23.472c11.03 0 19.97 8.327 19.97 18.6v6.341c0 10.272-8.94 18.6-19.97 18.6h-11.794l.019 4.909-6.403-4.91h-5.294c-11.03 0-19.97-8.327-19.97-18.599v-6.342c0-10.272 8.94-18.599 19.97-18.599" mask="url(#h)"/>
            <g mask="url(#h)">
                <g transform="translate(143.925 73.388)">
                    <mask id="j" fill="#fff">
                        <use xlink:href="#i"/>
                    </mask>
                    <path fill="#97ABC1" fill-opacity=".596" d="M-6.244-3.646h-23.495c-11.04 0-19.99 8.377-19.99 18.71v6.38c0 10.333 8.95 18.71 19.99 18.71h11.806l-.019 4.94 6.41-4.94h5.298c11.04 0 19.99-8.377 19.99-18.71v-6.38c0-10.333-8.95-18.71-19.99-18.71" mask="url(#j)"/>
                </g>
            </g>
            <path fill="#F9F9F9" d="M132.505 66.975h-23.472c-11.03 0-19.97 8.327-19.97 18.6v6.341c0 10.272 8.94 18.6 19.97 18.6h11.794l-.019 4.909 6.403-4.91h5.294c11.029 0 19.97-8.327 19.97-18.599v-6.342c0-10.272-8.941-18.599-19.97-18.599" mask="url(#h)"/>
        </g>
        <path fill="#97ABC1" d="M93.304 11.88v7.53h-1.51v-5.254l-1.932 5.254h-1.316l-1.931-5.232v5.232h-1.521v-7.53h1.845l2.287 5.664 2.244-5.664h1.834zm2.406 1.553l1.629 4.057 1.51-4.057h1.673l-3.658 8.825h-1.683l1.349-3.02-2.514-5.805h1.694zM81.485 26.178l2.039 6.031 2.05-6.03h1.629l-2.697 7.616h-1.953l-2.697-7.617h1.629zm10.87 1.931c.463.245.828.6 1.095 1.063.266.464.399 1.009.399 1.634 0 .626-.133 1.17-.4 1.63a2.73 2.73 0 0 1-1.094 1.062 3.275 3.275 0 0 1-1.57.372 3.275 3.275 0 0 1-1.57-.372 2.73 2.73 0 0 1-1.095-1.062c-.266-.46-.4-1.004-.4-1.63 0-.625.134-1.17.4-1.634a2.685 2.685 0 0 1 1.095-1.063 3.314 3.314 0 0 1 1.57-.366c.582 0 1.106.122 1.57.366zm-2.65 1.397c-.294.299-.441.732-.441 1.3 0 .569.147 1.002.442 1.3.295.299.654.448 1.079.448.424 0 .784-.149 1.079-.447.295-.299.442-.732.442-1.3 0-.569-.147-1.002-.442-1.3a1.459 1.459 0 0 0-1.08-.448c-.424 0-.783.149-1.078.447zm8.416 2.984v1.305h-.798c-.67 0-1.182-.162-1.538-.486-.356-.323-.534-.863-.534-1.618v-2.59h-.83v-1.283h.83V26.34h1.521v1.478h1.338v1.284h-1.338v2.61c0 .288.058.49.173.605.115.115.31.173.583.173h.593zm6.657-1.392h-4.38c.021.532.165.924.431 1.176.266.251.597.377.993.377.352 0 .645-.086.879-.259.234-.172.383-.406.448-.7h1.607c-.08.416-.248.79-.507 1.121a2.65 2.65 0 0 1-.998.777 3.2 3.2 0 0 1-1.354.28c-.583 0-1.1-.124-1.553-.372a2.616 2.616 0 0 1-1.058-1.062c-.252-.46-.377-1.004-.377-1.63 0-.625.125-1.17.377-1.634a2.574 2.574 0 0 1 1.058-1.063c.453-.244.97-.366 1.553-.366.59 0 1.106.122 1.548.366.443.245.784.581 1.025 1.01a2.928 2.928 0 0 1 .308 1.979zm-1.861-1.78a1.46 1.46 0 0 0-1.02-.378c-.41 0-.755.126-1.036.378-.28.251-.435.622-.464 1.11h2.903c.021-.488-.106-.859-.383-1.11zM139.019 19.885v1.208h-2.104v6.409h-1.521v-6.409h-2.093v-1.208h5.718zm6.052 2.233c.41.453.615 1.09.615 1.91v3.474h-1.51V24.2c0-.474-.122-.843-.367-1.106-.244-.262-.579-.393-1.003-.393-.432 0-.777.14-1.036.42-.259.28-.388.684-.388 1.209v3.172h-1.521v-7.984h1.52v3.204c.159-.403.42-.717.783-.944.363-.226.782-.34 1.257-.34.69 0 1.24.227 1.65.68zm5.589-.313c.36.238.615.558.766.96v-1.24h1.51v5.977h-1.51V26.25a1.968 1.968 0 0 1-.766.966c-.36.24-.791.361-1.295.361-.503 0-.956-.122-1.36-.367a2.478 2.478 0 0 1-.943-1.062c-.227-.464-.34-1.01-.34-1.635 0-.626.113-1.17.34-1.634.226-.464.541-.818.944-1.063a2.567 2.567 0 0 1 1.36-.367c.503 0 .934.119 1.294.356zm-1.964 1.435c-.287.31-.431.734-.431 1.273 0 .54.144.962.431 1.268.288.305.67.458 1.144.458.46 0 .84-.156 1.138-.469.299-.313.448-.732.448-1.257 0-.532-.15-.955-.448-1.268-.298-.312-.678-.469-1.138-.469-.475 0-.856.155-1.144.464zm10.832-1.122c.41.453.615 1.09.615 1.91v3.474h-1.51V24.2c0-.474-.123-.843-.367-1.106-.245-.262-.58-.393-1.003-.393-.432 0-.777.14-1.036.42-.26.28-.389.684-.389 1.209v3.172h-1.52v-5.977h1.52v1.197c.159-.403.42-.717.783-.944.363-.226.782-.34 1.257-.34.69 0 1.24.227 1.65.68zm5.448 5.384l-1.974-2.611v2.61h-1.521v-7.983h1.521v4.488l1.964-2.481h1.801l-2.513 2.977 2.578 3h-1.856zm-23.524 7.508l1.629 4.057 1.51-4.057h1.673l-3.658 8.826h-1.683l1.349-3.021-2.514-5.805h1.694zm9.855.292c.464.244.83.599 1.095 1.062.266.464.4 1.01.4 1.635 0 .626-.134 1.169-.4 1.629a2.73 2.73 0 0 1-1.095 1.063 3.275 3.275 0 0 1-1.57.372 3.275 3.275 0 0 1-1.57-.372 2.73 2.73 0 0 1-1.094-1.063c-.266-.46-.4-1.003-.4-1.63 0-.625.134-1.17.4-1.634a2.685 2.685 0 0 1 1.095-1.062 3.314 3.314 0 0 1 1.57-.367c.582 0 1.105.122 1.57.367zm-2.648 1.397c-.295.298-.443.732-.443 1.3 0 .568.148 1.001.443 1.3.295.298.654.448 1.079.448.424 0 .783-.15 1.078-.448.295-.299.443-.732.443-1.3 0-.568-.148-1.002-.443-1.3a1.459 1.459 0 0 0-1.078-.448c-.425 0-.784.15-1.08.448zm10.94-1.689v5.977h-1.522V39.78a1.904 1.904 0 0 1-.782.944c-.363.227-.782.34-1.257.34-.69 0-1.24-.227-1.65-.68-.41-.453-.616-1.086-.616-1.899V35.01h1.51v3.302c0 .475.123.843.368 1.106.244.262.575.393.992.393.439 0 .788-.14 1.047-.42.259-.28.388-.684.388-1.209V35.01h1.521z"/>
    </g>
</svg>
