<svg width="8" height="14" xmlns="http://www.w3.org/2000/svg">

 <g>
  <title>background</title>
  <rect fill="none" id="canvas_background" height="402" width="582" y="-1" x="-1"/>
 </g>
 <g>
  <title>Layer 1</title>
  <path transform="rotate(180 3.8299999237060547,7.082499980926514) " id="svg_1" opacity="0.5" d="m1.799,7.082l5.42,5.58l-0.679,0.699l-5.76,-5.931l-0.339,-0.349l0.34,-0.35l5.759,-5.927l0.678,0.7l-5.419,5.578z" stroke-width="0.5" stroke="#1D2031" fill-rule="evenodd" fill="#1D2031"/>
 </g>
</svg>