<svg xmlns="http://www.w3.org/2000/svg" width="32" height="32" viewBox="0 0 32 32">
    <g fill="none" fill-rule="evenodd" transform="translate(1 1)">
        <circle cx="15" cy="15" r="15" stroke="#1D2031" opacity=".5"/>
        <path fill="#1D2031" d="M11.801 15.602h6.398V14h-6.398v1.602zm-3.281-.801a3.246 3.246 0 0 1 3.281-3.281h2.398V10h-2.398A4.815 4.815 0 0 0 7 14.801c0 2.64 2.16 4.801 4.801 4.801h2.398v-1.524h-2.398c-1.84 0-3.281-1.437-3.281-3.277zM18.199 10h-2.398v1.52h2.398a3.246 3.246 0 0 1 3.281 3.281c0 1.84-1.441 3.277-3.281 3.277h-2.398v1.524h2.398A4.815 4.815 0 0 0 23 14.801 4.815 4.815 0 0 0 18.199 10z"/>
    </g>
</svg>
