<svg xmlns="http://www.w3.org/2000/svg" xmlns:xlink="http://www.w3.org/1999/xlink" width="23" height="24" viewBox="0 0 23 24">
    <defs>
        <path id="a" d="M.003.02h16.849v17.499H.002z"/>
        <path id="c" d="M.024.045h13.477v20.612H.024z"/>
    </defs>
    <g fill="none" fill-rule="evenodd">
        <g>
            <mask id="b" fill="#fff">
                <use xlink:href="#a"/>
            </mask>
            <path fill="#8CD0E9" d="M8.378 12.334c-1.915 0-3.447-1.596-3.447-3.59 0-1.994 1.532-3.59 3.447-3.59s3.447 1.596 3.447 3.59c0 1.994-1.532 3.59-3.447 3.59zm7.037-5.584a7.695 7.695 0 0 0-.67-1.745l.575-1.396-2.011-2.044-1.34.598c-.527-.3-1.054-.548-1.676-.698L9.814.02H6.99l-.527 1.446a7.047 7.047 0 0 0-1.676.698l-1.34-.598-1.963 2.044.575 1.396c-.288.548-.527 1.097-.67 1.745L0 7.298v2.942l1.388.548c.144.598.383 1.197.67 1.745l-.574 1.396 2.01 2.044 1.341-.598c.527.3 1.053.548 1.676.698l.526 1.446h2.777l.527-1.446a7.048 7.048 0 0 0 1.675-.698l1.34.598 2.011-2.044-.574-1.396c.287-.548.527-1.097.67-1.745l1.389-.548V7.298l-1.437-.548z" mask="url(#b)"/>
        </g>
        <path fill="#5AB9DC" d="M10.82 11.287a3.315 3.315 0 0 1-4.836 0L4.74 12.583a5.056 5.056 0 0 0 7.324 0c2.01-2.094 2.01-5.484 0-7.628L10.82 6.251a3.655 3.655 0 0 1 0 5.036"/>
        <g transform="translate(3.207 3.34)">
            <mask id="d" fill="#fff">
                <use xlink:href="#c"/>
            </mask>
            <path fill="#5AB9DC" d="M1.532 1.615c-2.01 2.094-2.01 5.484 0 7.628l1.245-1.296a3.655 3.655 0 0 1 0-5.036 3.315 3.315 0 0 1 4.835 0l1.245-1.296a5.056 5.056 0 0 0-7.325 0" mask="url(#d)"/>
            <path fill="#65BEAC" d="M9.192 18.167c-.814-.349-1.197-1.296-.862-2.094.336-.847 1.245-1.246 2.011-.897.814.349 1.197 1.296.862 2.094-.335.847-1.245 1.246-2.01.897zm3.83-1.047c.048-.299.048-.548 0-.847l.479-.499-.479-1.246h-.67c-.144-.2-.383-.4-.575-.599v-.698l-1.196-.498-.48.498a2.233 2.233 0 0 0-.813 0l-.479-.498-1.197.498v.698c-.191.15-.383.4-.574.599h-.67l-.48 1.246.48.499c-.048.299-.048.548 0 .847l-.48.499.48 1.246h.67c.143.2.383.4.574.598v.698l1.197.499.479-.499c.287.05.526.05.814 0l.479.499 1.196-.499v-.698c.192-.15.383-.398.575-.598h.67l.479-1.246-.479-.499z" mask="url(#d)"/>
        </g>
        <path fill="#EE3E54" d="M18.623 15.026c-.814-.35-1.197-1.296-.862-2.094.335-.848 1.245-1.246 2.01-.897.815.349 1.198 1.296.863 2.094a1.481 1.481 0 0 1-2.011.897zm3.878-1.097c.048-.3.048-.548 0-.847l.478-.499-.478-1.246h-.67c-.144-.2-.384-.4-.575-.599v-.698l-1.197-.498-.479.498a2.235 2.235 0 0 0-.813 0l-.48-.498-1.196.498v.698c-.192.15-.383.4-.575.599h-.67l-.479 1.246.48.499c-.049.299-.049.548 0 .847l-.48.499.48 1.246h.67c.143.2.382.399.574.598v.698l1.197.499.479-.499c.287.05.526.05.813 0l.48.499 1.196-.499v-.698c.191-.15.383-.399.574-.598h.67l.48-1.246-.48-.499z"/>
    </g>
</svg>
