<svg xmlns="http://www.w3.org/2000/svg" width="14" height="14" viewBox="0 0 14 14">
    <path fill="#97ABC1" fill-rule="nonzero" d="M13.829 13.006L10.463 9.64A5.902 5.902 0 0 0 5.9 0a5.9 5.9 0 1 0 3.737 10.466l3.366 3.363a.583.583 0 0 0 .826-.823zM5.9 10.626A4.732 4.732 0 0 1 1.171 5.9 4.734 4.734 0 0 1 5.9 1.171 4.736 4.736 0 0 1 10.629 5.9 4.734 4.734 0 0 1 5.9 10.626z"/>
</svg>
