<svg xmlns="http://www.w3.org/2000/svg" xmlns:xlink="http://www.w3.org/1999/xlink" width="139" height="76" viewBox="0 0 139 76">
    <defs>
        <path id="a" d="M.943 1.396L2.236 3.84l1.296-2.443H.943"/>
        <linearGradient id="b" x1="19.06%" x2="67.98%" y1="-71.91%" y2="52.47%">
            <stop offset="0%" stop-color="#B4B6B3"/>
            <stop offset="100%" stop-color="#FFFFFE"/>
        </linearGradient>
        <path id="d" d="M1.124 1.396L2.419 3.84l1.29-2.443H1.124"/>
        <linearGradient id="e" x1="19.01%" x2="67.97%" y1="-72%" y2="52.5%">
            <stop offset="0%" stop-color="#B4B6B3"/>
            <stop offset="100%" stop-color="#FFFFFE"/>
        </linearGradient>
        <path id="g" d="M1.301 1.396L2.6 3.84l1.295-2.443H1.301"/>
        <linearGradient id="h" x1="19.25%" x2="68.21%" y1="-72.05%" y2="52.45%">
            <stop offset="0%" stop-color="#B4B6B3"/>
            <stop offset="100%" stop-color="#FFFFFE"/>
        </linearGradient>
        <path id="j" d="M1.484 1.396L2.777 3.84l1.296-2.443H1.484"/>
        <linearGradient id="k" x1="19.19%" x2="68.11%" y1="-71.96%" y2="52.43%">
            <stop offset="0%" stop-color="#B4B6B3"/>
            <stop offset="100%" stop-color="#FFFFFE"/>
        </linearGradient>
        <path id="m" d="M1.665 1.396L2.96 3.84l1.293-2.443H1.665"/>
        <linearGradient id="n" x1="19.03%" x2="67.99%" y1="-71.96%" y2="52.54%">
            <stop offset="0%" stop-color="#B4B6B3"/>
            <stop offset="100%" stop-color="#FFFFFE"/>
        </linearGradient>
        <path id="p" d="M1.845 1.396L3.141 3.84l1.298-2.443H1.845"/>
        <linearGradient id="q" x1="19.07%" x2="68.03%" y1="-72.05%" y2="52.45%">
            <stop offset="0%" stop-color="#B4B6B3"/>
            <stop offset="100%" stop-color="#FFFFFE"/>
        </linearGradient>
        <path id="s" d="M2.026 1.396L3.32 3.84l1.296-2.443H2.026"/>
        <linearGradient id="t" x1="19.11%" x2="68.07%" y1="-72%" y2="52.5%">
            <stop offset="0%" stop-color="#B4B6B3"/>
            <stop offset="100%" stop-color="#FFFFFE"/>
        </linearGradient>
        <path id="v" d="M3.168 2.123L.525 1.312l.812 2.642 1.831-1.83"/>
        <linearGradient id="w" x1="134.07%" x2="11.53%" y1="94.08%" y2="40.72%">
            <stop offset="0%" stop-color="#B4B6B3"/>
            <stop offset="100%" stop-color="#FFFFFE"/>
        </linearGradient>
        <path id="y" d="M3.84 1.451L1.198.639l.812 2.643L3.841 1.45"/>
        <linearGradient id="z" x1="134.08%" x2="11.54%" y1="94.12%" y2="40.76%">
            <stop offset="0%" stop-color="#B4B6B3"/>
            <stop offset="100%" stop-color="#FFFFFE"/>
        </linearGradient>
        <path id="B" d="M4.513 3.511L1.87 2.7l.812 2.64L4.513 3.51"/>
        <linearGradient id="C" x1="134.09%" x2="11.55%" y1="94.07%" y2="40.71%">
            <stop offset="0%" stop-color="#B4B6B3"/>
            <stop offset="100%" stop-color="#FFFFFE"/>
        </linearGradient>
        <path id="E" d="M5.186 2.836l-2.644-.808.812 2.64 1.832-1.832"/>
        <linearGradient id="F" x1="134.1%" x2="11.67%" y1="93.96%" y2="40.65%">
            <stop offset="0%" stop-color="#B4B6B3"/>
            <stop offset="100%" stop-color="#FFFFFE"/>
        </linearGradient>
        <path id="H" d="M3.125 2.164L.484 1.353l.809 2.642 1.832-1.83"/>
        <linearGradient id="I" x1="134.01%" x2="11.47%" y1="94.15%" y2="40.79%">
            <stop offset="0%" stop-color="#B4B6B3"/>
            <stop offset="100%" stop-color="#FFFFFE"/>
        </linearGradient>
        <path id="K" d="M3.797 1.492L1.154.68l.811 2.643 1.832-1.831"/>
        <linearGradient id="L" x1="134.12%" x2="11.58%" y1="94.14%" y2="40.78%">
            <stop offset="0%" stop-color="#B4B6B3"/>
            <stop offset="100%" stop-color="#FFFFFE"/>
        </linearGradient>
        <path id="N" d="M4.47.82L1.828.008l.809 2.643L4.469.82"/>
        <linearGradient id="O" x1="134.13%" x2="11.59%" y1="94.13%" y2="40.77%">
            <stop offset="0%" stop-color="#B4B6B3"/>
            <stop offset="100%" stop-color="#FFFFFE"/>
        </linearGradient>
        <path id="Q" d="M15.018 1.025s-5.522 5.779-4.636 10.16c.03.144.065.289.112.434C11.866 16.04.6 8.654.6 8.654s7.752-8.96 14.417-7.63z"/>
        <radialGradient id="R" cx="48.508%" cy="6.003%" r="86.225%" fx="48.508%" fy="6.003%" gradientTransform="scale(-.842 -1) rotate(-72.933 -.127 .718)">
            <stop offset="0%" stop-color="#757A92"/>
            <stop offset="100%" stop-color="#36394E"/>
        </radialGradient>
        <path id="T" d="M113.28 24.348c1.162-3.951 1.805-6.506 5.558-11.95 5.076-6.194 8.72-10.473 13.526-11.454 0 0 2.034-1.115-7.326 1.314-8.685 2.257-20.355 19.65-20.355 19.65-15.942-5.244-32.472-8.99-48.82-11.414C45.912 9.027-2.478 11.52.638 20.145c1.711 4.733 17.894 12.116 25.988 13.319 4.88.724 19.917-.022 19.762 1.388-.484 4.364-9.314 10.17-7.96 10.523 18.525 4.836 46.096-2.593 65.885-14.084 3.326 6.81 7.126 14.128 13.454 18.606-2.673-8.564-5.224-16.474-4.485-25.549"/>
        <radialGradient id="U" cx="48.508%" cy="6.003%" r="81.354%" fx="48.508%" fy="6.003%" gradientTransform="matrix(.37263 0 0 1 .304 0)">
            <stop offset="0%" stop-color="#757A92"/>
            <stop offset="100%" stop-color="#36394E"/>
        </radialGradient>
        <path id="W" d="M112.775 7.432c-10.888 7.184-25.122 8.247-37.749 7.026-20.597-1.992-40.465-9.665-60.82-13.234-5.811-1.02-9.873-.989-11.779 0 .08.249.195.53.383.749 5.41 6.178 17.985 12.179 26.12 13.39 4.904.726 20.02-.02 19.862 1.393-.484 4.388-9.363 10.222-8.001 10.58 18.635 4.856 46.397-2.358 66.227-14.157a144.924 144.924 0 0 0 5.757-5.747"/>
        <radialGradient id="X" cx="41.802%" cy="120.081%" r="156.015%" fx="41.802%" fy="120.081%" gradientTransform="matrix(.25735 0 0 1 .31 0)">
            <stop offset="0%" stop-color="#FFFFFE"/>
            <stop offset="100%" stop-color="#B4B6B3"/>
        </radialGradient>
        <path id="Z" d="M20.743 10.79c0 5.381-4.347 9.726-9.71 9.726a9.714 9.714 0 0 1-9.718-9.725c0-5.356 4.349-9.7 9.718-9.7 5.363 0 9.71 4.344 9.71 9.7"/>
        <radialGradient id="aa" cx="22.727%" cy="11.228%" r="93.935%" fx="22.727%" fy="11.228%" gradientTransform="matrix(.99989 0 0 1 0 0)">
            <stop offset="0%" stop-color="#FFFFFE"/>
            <stop offset="100%" stop-color="#B4B6B3"/>
        </radialGradient>
        <path id="ac" d="M10.128 5.611a4.832 4.832 0 1 1-9.666 0A4.827 4.827 0 0 1 5.295.788a4.83 4.83 0 0 1 4.833 4.823"/>
        <radialGradient id="ad" cx="48.508%" cy="17.719%" r="62.129%" fx="48.508%" fy="17.719%" gradientTransform="matrix(.02402 .99971 -1.77681 .04273 .788 -.315)">
            <stop offset="0%" stop-color="#757A92"/>
            <stop offset="100%" stop-color="#36394E"/>
        </radialGradient>
        <path id="af" d="M.15 3.831s2.318-.842 3.69-1.473c0 0 1.685 4.216 3.475 4.845 0 0-4.322 2-7.165-3.372"/>
        <radialGradient id="ag" cx="11.148%" cy="-6.929%" r="134.975%" fx="11.148%" fy="-6.929%" gradientTransform="matrix(.72705 0 0 1 .03 0)">
            <stop offset="0%" stop-color="#FFFFFE"/>
            <stop offset="100%" stop-color="#B4B6B3"/>
        </radialGradient>
        <path id="ai" d="M13.914 3.485C9.33 2.78 4.776 1.843.235.785c3.28 4.714 11.14 14.518 19.75 14.376 0 0-4.02-4.722-6.683-10.293-.107-.224.197-.457.314-.683.129-.244.224-.476.298-.7"/>
        <radialGradient id="aj" cx="57.16%" cy="0%" r="73.093%" fx="57.16%" fy="0%" gradientTransform="scale(.72796 1) rotate(74.089 .678 .142)">
            <stop offset="0%" stop-color="#757A92"/>
            <stop offset="100%" stop-color="#36394E"/>
        </radialGradient>
        <path id="al" d="M1.115 1.713c.391.448.714.976.94 1.572.878 2.303.006 4.82-1.943 5.965 2.121-.894 3.13-3.405 2.26-5.695a4.739 4.739 0 0 0-1.257-1.842"/>
        <radialGradient id="am" cx="27.2%" cy="48.771%" r="95.622%" fx="27.2%" fy="48.771%" gradientTransform="matrix(.93482 -.1288 .38751 .37002 -.171 .342)">
            <stop offset="0%" stop-color="#FFFFFE"/>
            <stop offset="100%" stop-color="#B4B6B3"/>
        </radialGradient>
        <path id="ao" d="M2.993 2.342c.391.445.714.975.943 1.568.875 2.304.006 4.82-1.943 5.963 2.113-.888 3.13-3.405 2.26-5.692a4.694 4.694 0 0 0-1.26-1.84"/>
        <radialGradient id="ap" cx="27.25%" cy="48.77%" r="95.65%" fx="27.25%" fy="48.77%" gradientTransform="matrix(.93486 -.12886 .38737 .37028 -.171 .342)">
            <stop offset="0%" stop-color="#FFFFFE"/>
            <stop offset="100%" stop-color="#B4B6B3"/>
        </radialGradient>
        <path id="ar" d="M2.138.235c.393.448.713.976.94 1.568.878 2.307.008 4.82-1.94 5.966 2.118-.894 3.13-3.405 2.26-5.695A4.657 4.657 0 0 0 2.138.235"/>
        <radialGradient id="as" cx="27.3%" cy="48.752%" r="95.65%" fx="27.3%" fy="48.752%" gradientTransform="matrix(.93486 -.12882 .38737 .37014 -.171 .342)">
            <stop offset="0%" stop-color="#FFFFFE"/>
            <stop offset="100%" stop-color="#B4B6B3"/>
        </radialGradient>
    </defs>
    <g fill="none" fill-rule="evenodd">
        <path fill="#FFFFFE" d="M8.88 28.326a3.717 3.717 0 1 1 7.436.002 3.717 3.717 0 0 1-7.437-.002"/>
        <g transform="translate(40.174 57.766)">
            <mask id="c" fill="#fff">
                <use xlink:href="#a"/>
            </mask>
            <path fill="url(#b)" d="M.943 1.396L2.236 3.84l1.296-2.443H.943" mask="url(#c)"/>
        </g>
        <g transform="translate(42.907 57.766)">
            <mask id="f" fill="#fff">
                <use xlink:href="#d"/>
            </mask>
            <path fill="url(#e)" d="M1.124 1.396L2.419 3.84l1.29-2.443H1.124" mask="url(#f)"/>
        </g>
        <g transform="translate(45.64 57.766)">
            <mask id="i" fill="#fff">
                <use xlink:href="#g"/>
            </mask>
            <path fill="url(#h)" d="M1.301 1.396L2.6 3.84l1.295-2.443H1.301" mask="url(#i)"/>
        </g>
        <g transform="translate(48.374 57.766)">
            <mask id="l" fill="#fff">
                <use xlink:href="#j"/>
            </mask>
            <path fill="url(#k)" d="M1.484 1.396L2.777 3.84l1.296-2.443H1.484" mask="url(#l)"/>
        </g>
        <g transform="translate(51.108 57.766)">
            <mask id="o" fill="#fff">
                <use xlink:href="#m"/>
            </mask>
            <path fill="url(#n)" d="M1.665 1.396L2.96 3.84l1.293-2.443H1.665" mask="url(#o)"/>
        </g>
        <g transform="translate(53.842 57.766)">
            <mask id="r" fill="#fff">
                <use xlink:href="#p"/>
            </mask>
            <path fill="url(#q)" d="M1.845 1.396L3.141 3.84l1.298-2.443H1.845" mask="url(#r)"/>
        </g>
        <g transform="translate(56.575 57.766)">
            <mask id="u" fill="#fff">
                <use xlink:href="#s"/>
            </mask>
            <path fill="url(#t)" d="M2.026 1.396L3.32 3.84l1.296-2.443H2.026" mask="url(#u)"/>
        </g>
        <g transform="translate(64.776 55.034)">
            <mask id="x" fill="#fff">
                <use xlink:href="#v"/>
            </mask>
            <path fill="url(#w)" d="M3.168 2.123L.525 1.312l.812 2.642 1.831-1.83" mask="url(#x)"/>
        </g>
        <g transform="translate(62.042 57.766)">
            <mask id="A" fill="#fff">
                <use xlink:href="#y"/>
            </mask>
            <path fill="url(#z)" d="M3.84 1.451L1.198.639l.812 2.643L3.841 1.45" mask="url(#A)"/>
        </g>
        <g transform="translate(59.309 57.766)">
            <mask id="D" fill="#fff">
                <use xlink:href="#B"/>
            </mask>
            <path fill="url(#C)" d="M4.513 3.511L1.87 2.7l.812 2.64L4.513 3.51" mask="url(#D)"/>
        </g>
        <g transform="translate(56.575 60.499)">
            <mask id="G" fill="#fff">
                <use xlink:href="#E"/>
            </mask>
            <path fill="url(#F)" d="M5.186 2.836l-2.644-.808.812 2.64 1.832-1.832" mask="url(#G)"/>
        </g>
        <g transform="translate(56.575 63.231)">
            <mask id="J" fill="#fff">
                <use xlink:href="#H"/>
            </mask>
            <path fill="url(#I)" d="M3.125 2.164L.484 1.353l.809 2.642 1.832-1.83" mask="url(#J)"/>
        </g>
        <g transform="translate(53.842 65.964)">
            <mask id="M" fill="#fff">
                <use xlink:href="#K"/>
            </mask>
            <path fill="url(#L)" d="M3.797 1.492L1.154.68l.811 2.643 1.832-1.831" mask="url(#M)"/>
        </g>
        <g transform="translate(51.108 68.696)">
            <mask id="P" fill="#fff">
                <use xlink:href="#N"/>
            </mask>
            <path fill="url(#O)" d="M4.47.82L1.828.008l.809 2.643L4.469.82" mask="url(#P)"/>
        </g>
        <g transform="translate(66.676 27.708)">
            <mask id="S" fill="#fff">
                <use xlink:href="#Q"/>
            </mask>
            <path fill="url(#R)" d="M15.018 1.025s-5.522 5.779-4.636 10.16c.03.144.065.289.112.434C11.866 16.04.6 8.654.6 8.654s7.752-8.96 14.417-7.63z" mask="url(#S)"/>
        </g>
        <g>
            <path fill="#FFFFFE" d="M.036 19.489a4.648 4.648 0 0 1 4.65-4.645c2.57 0 4.647 2.08 4.647 4.645a4.644 4.644 0 0 1-4.647 4.645 4.648 4.648 0 0 1-4.65-4.645M8.084 7.939a6.972 6.972 0 0 1 6.97-6.974 6.973 6.973 0 1 1 0 13.944 6.971 6.971 0 0 1-6.97-6.97"/>
            <g transform="translate(6.069 25.926)">
                <mask id="V" fill="#fff">
                    <use xlink:href="#T"/>
                </mask>
                <path fill="url(#U)" d="M113.28 24.348c1.162-3.951 1.805-6.506 5.558-11.95 5.076-6.194 8.72-10.473 13.526-11.454 0 0 2.034-1.115-7.326 1.314-8.685 2.257-20.355 19.65-20.355 19.65-15.942-5.244-32.472-8.99-48.82-11.414C45.912 9.027-2.478 11.52.638 20.145c1.711 4.733 17.894 12.116 25.988 13.319 4.88.724 19.917-.022 19.762 1.388-.484 4.364-9.314 10.17-7.96 10.523 18.525 4.836 46.096-2.593 65.885-14.084 3.326 6.81 7.126 14.128 13.454 18.606-2.673-8.564-5.224-16.474-4.485-25.549" mask="url(#V)"/>
            </g>
            <g transform="translate(3.335 44.104)">
                <mask id="Y" fill="#fff">
                    <use xlink:href="#W"/>
                </mask>
                <path fill="url(#X)" d="M112.775 7.432c-10.888 7.184-25.122 8.247-37.749 7.026-20.597-1.992-40.465-9.665-60.82-13.234-5.811-1.02-9.873-.989-11.779 0 .08.249.195.53.383.749 5.41 6.178 17.985 12.179 26.12 13.39 4.904.726 20.02-.02 19.862 1.393-.484 4.388-9.363 10.222-8.001 10.58 18.635 4.856 46.397-2.358 66.227-14.157a144.924 144.924 0 0 0 5.757-5.747" mask="url(#Y)"/>
            </g>
            <g transform="translate(30.671 27.708)">
                <mask id="ab" fill="#fff">
                    <use xlink:href="#Z"/>
                </mask>
                <path fill="url(#aa)" d="M20.743 10.79c0 5.381-4.347 9.726-9.71 9.726a9.714 9.714 0 0 1-9.718-9.725c0-5.356 4.349-9.7 9.718-9.7 5.363 0 9.71 4.344 9.71 9.7" mask="url(#ab)"/>
            </g>
            <g transform="translate(33.405 31.39)">
                <mask id="ae" fill="#fff">
                    <use xlink:href="#ac"/>
                </mask>
                <path fill="url(#ad)" d="M10.128 5.611a4.832 4.832 0 1 1-9.666 0A4.827 4.827 0 0 1 5.295.788a4.83 4.83 0 0 1 4.833 4.823" mask="url(#ae)"/>
            </g>
            <g transform="translate(93.544 60.499)">
                <mask id="ah" fill="#fff">
                    <use xlink:href="#af"/>
                </mask>
                <path fill="url(#ag)" d="M.15 3.831s2.318-.842 3.69-1.473c0 0 1.685 4.216 3.475 4.845 0 0-4.322 2-7.165-3.372" mask="url(#ah)"/>
            </g>
            <g transform="translate(55.274 53.251)">
                <mask id="ak" fill="#fff">
                    <use xlink:href="#ai"/>
                </mask>
                <path fill="url(#aj)" d="M13.914 3.485C9.33 2.78 4.776 1.843.235.785c3.28 4.714 11.14 14.518 19.75 14.376 0 0-4.02-4.722-6.683-10.293-.107-.224.197-.457.314-.683.129-.244.224-.476.298-.7" mask="url(#ak)"/>
            </g>
        </g>
        <g>
            <g transform="translate(52.54 41.371)">
                <mask id="an" fill="#fff">
                    <use xlink:href="#al"/>
                </mask>
                <path fill="url(#am)" d="M1.115 1.713c.391.448.714.976.94 1.572.878 2.303.006 4.82-1.943 5.965 2.121-.894 3.13-3.405 2.26-5.695a4.739 4.739 0 0 0-1.257-1.842" mask="url(#an)"/>
            </g>
            <g transform="translate(52.54 41.371)">
                <mask id="aq" fill="#fff">
                    <use xlink:href="#ao"/>
                </mask>
                <path fill="url(#ap)" d="M2.993 2.342c.391.445.714.975.943 1.568.875 2.304.006 4.82-1.943 5.963 2.113-.888 3.13-3.405 2.26-5.692a4.694 4.694 0 0 0-1.26-1.84" mask="url(#aq)"/>
            </g>
            <g transform="translate(55.274 44.104)">
                <mask id="at" fill="#fff">
                    <use xlink:href="#ar"/>
                </mask>
                <path fill="url(#as)" d="M2.138.235c.393.448.713.976.94 1.568.878 2.307.008 4.82-1.94 5.966 2.118-.894 3.13-3.405 2.26-5.695A4.657 4.657 0 0 0 2.138.235" mask="url(#at)"/>
            </g>
        </g>
    </g>
</svg>
