<svg width="8" height="14" xmlns="http://www.w3.org/2000/svg">
 <g>
  <title>background</title>
  <rect x="-1" y="-1" width="10" height="16" id="canvas_background" fill="none"/>
 </g>

 <g>
  <title>Layer 1</title>
  <path fill="#ffffff" fill-rule="evenodd" stroke="#ffffff" stroke-width="0.5" d="m6.279,6.918l-5.489,-5.58l0.687,-0.699l5.833,5.931l0.344,0.349l-0.344,0.35l-5.832,5.929l-0.687,-0.7l5.488,-5.58z" id="svg_1"/>
 </g>
</svg>