<svg xmlns="http://www.w3.org/2000/svg" width="20" height="22" viewBox="0 0 20 22">
    <g fill="none" fill-rule="evenodd">
        <path fill="#C6CBCB" d="M4.153 17.393L.3 18.563l.083.261 3.855-1.17zM4.326 17.934L.472 19.106l.092.288 3.854-1.17zM3.968 16.81L.113 17.98l.1.312 3.854-1.17z"/>
        <g fill="#C6CBCB">
            <path d="M2.837 15.966l-2.294.643c-.258.072-.451.249-.521.449l3.444-1.008a.754.754 0 0 0-.63-.084zM3.674 16.296l-3.65 1.108a.465.465 0 0 0-.003.286l.007.021 3.853-1.17a.502.502 0 0 0-.207-.245z"/>
        </g>
        <path fill="#C6CBCB" d="M1.549 21.877a.874.874 0 0 0 .6.031l2.432-.708a.812.812 0 0 0 .51-.398l-3.542 1.075zM4.507 18.501l-3.855 1.17.094.294 3.854-1.17zM4.867 19.632l-3.855 1.17.09.281 3.854-1.17zM5.125 20.442l-.076-.237-3.854 1.17.061.193a.475.475 0 0 0 .027.065l3.847-1.167-.005-.024zM4.685 19.063l-3.854 1.17.09.281 3.854-1.17z"/>
        <path fill="#F2B643" d="M8.616 14.628l2.185 3.083s-.444.884-1.6 1.35c-1.155.467-1.832.592-2.298.637-.467.044-.89.017-1.118.11-.228.094-.767.286-.767.286l-1.056-3.29s.419-.161.84-.982c.421-.82.66-1.086.66-1.086s1.102-.442 1.8-.596c.697-.153.96-.258 1.092-.051.132.207.262.54.262.54z"/>
        <path fill="#D89932" d="M5.002 20.124l-.007-.023-1.063-3.31.02-.009c.005-.002.417-.17.828-.97.418-.814.653-1.08.663-1.091l.004-.004.005-.002c.01-.005 1.113-.445 1.804-.598l.294-.067c.299-.069.496-.115.63-.096a.258.258 0 0 1 .194.123c.126.196.251.508.264.54l2.191 3.092-.006.012c-.004.009-.46.898-1.612 1.362-1.215.49-1.898.6-2.306.638a8.911 8.911 0 0 1-.472.029c-.265.01-.495.02-.639.08-.225.093-.762.283-.767.285l-.025.01zm-1.01-3.308l1.042 3.247c.107-.038.544-.195.741-.276.152-.062.386-.072.656-.084.15-.006.305-.013.47-.028.404-.04 1.082-.147 2.291-.635 1.061-.428 1.523-1.221 1.581-1.327l-2.179-3.074-.001-.003a3.778 3.778 0 0 0-.26-.535.21.21 0 0 0-.16-.1c-.125-.018-.318.027-.611.095l-.295.067c-.662.146-1.705.559-1.79.593-.032.036-.266.322-.653 1.076-.373.727-.742.94-.833.984z"/>
        <path fill="#F2B643" d="M10.75 17.331s-.072-.383-.444-.31c-.41.08-1.395.398-1.89.627-.434.201-.508.31-.455.611.053.303.411.374.557.33.147-.044.102 0 1.997-.601 0 0 .35-.147.296-.385l-.06-.272z"/>
        <path fill="#D89932" d="M8.349 18.619c-.173-.025-.373-.13-.412-.356-.055-.316.032-.434.468-.636.497-.23 1.49-.55 1.896-.629a.453.453 0 0 1 .151-.006c.264.037.32.323.322.335l.061.271c.057.254-.296.404-.31.41-1.525.484-1.792.55-1.92.582l-.08.021a.427.427 0 0 1-.176.008zm2.096-1.58a.408.408 0 0 0-.134.005c-.404.079-1.39.397-1.884.625-.441.204-.49.308-.442.587.035.2.215.295.371.317a.382.382 0 0 0 .155-.006c.03-.01.051-.015.082-.022.128-.032.393-.097 1.914-.58 0 0 .329-.14.28-.357l-.06-.272c0-.003-.054-.266-.282-.298z"/>
        <path fill="#F2B643" d="M10.556 16.456s-.066-.345-.445-.31c-.378.034-1.616.466-2.032.7-.416.235-.66.336-.607.638.053.302.413.374.559.33l2.29-.702s.349-.146.296-.384l-.06-.272z"/>
        <path fill="#D89932" d="M7.862 17.844c-.175-.025-.375-.13-.414-.356-.05-.29.16-.406.507-.6l.111-.062c.431-.242 1.672-.67 2.043-.704a.553.553 0 0 1 .125.002c.288.04.346.325.346.328l.06.271c.058.254-.295.404-.31.41-.024.008-2.147.66-2.292.703a.432.432 0 0 1-.176.008zm2.365-1.674a.506.506 0 0 0-.113-.001c-.367.033-1.596.457-2.023.698l-.111.062c-.341.189-.53.293-.484.551.035.2.215.296.373.318a.387.387 0 0 0 .155-.006l2.289-.702s.329-.141.28-.357l-.06-.272c-.003-.011-.053-.255-.306-.29z"/>
        <path fill="#F2B643" d="M10.27 15.584s-.07-.345-.449-.306c-.378.04-1.358.446-1.771.685-.413.239-.815.45-.759.752.057.302.325.301.47.255.146-.045 2.28-.727 2.28-.727s.349-.15.293-.388l-.064-.27z"/>
        <path fill="#D89932" d="M7.555 17.012c-.11-.016-.248-.079-.288-.292-.056-.301.313-.514.704-.739l.066-.038c.41-.237 1.391-.648 1.782-.688a.553.553 0 0 1 .13.002c.284.04.344.32.345.323l.064.27c.06.253-.291.408-.306.414l-2.283.728a.501.501 0 0 1-.214.02zm2.387-1.71a.48.48 0 0 0-.118 0c-.378.038-1.365.452-1.761.68l-.067.04c-.376.215-.731.42-.68.69.034.186.153.24.246.254.06.008.13.002.192-.018l2.28-.727s.327-.145.276-.36l-.064-.272c-.002-.01-.055-.251-.304-.286z"/>
        <path fill="#F2B643" d="M9.929 14.585s-.105-.337-.477-.264c-.373.074-1.345.519-1.732.794-.387.276-.729.574-.642.869.086.294.353.27.493.21l2.197-.933s.331-.181.252-.412l-.091-.264z"/>
        <path fill="#D89932" d="M7.333 16.251c-.096-.014-.223-.07-.28-.261-.09-.313.26-.614.652-.893.389-.277 1.365-.724 1.742-.799a.512.512 0 0 1 .17-.006c.255.035.332.276.335.286l.091.263c.085.247-.249.433-.263.44-.023.01-2.06.876-2.2.934a.49.49 0 0 1-.247.036zm2.277-1.913a.469.469 0 0 0-.153.006c-.372.073-1.338.516-1.723.79-.36.256-.717.557-.633.843.04.134.12.21.24.228a.44.44 0 0 0 .22-.032l2.197-.933c0-.001.311-.174.239-.384l-.091-.264c-.003-.01-.073-.223-.296-.254z"/>
        <path fill="#F2B643" d="M4.1 16.715l-.138.1s.053-.024.139-.1zM9.048 15.4c-.194-.263-.413-.744-.413-.744s-.149-.36-.281-.567c-.133-.207-.395-.102-1.093.051-.697.154-1.8.596-1.8.596s-.238.265-.659 1.086c-.268.521-.534.776-.693.893l2.084-1.256c1.188.367 1.55-.23 1.55-.23.106.356.319.657.589.824.27.168.846.19.988.068.141-.121-.078-.459-.272-.721z"/>
        <path fill="#D89932" d="M3.97 16.825l-.018-.043c.005-.002.417-.17.828-.97.418-.814.653-1.08.663-1.091l.004-.004.005-.002c.01-.005 1.113-.445 1.804-.598l.294-.067c.483-.112.703-.163.824.027.132.206.282.567.284.57.002.004.22.481.41.74.206.28.424.618.268.751-.161.138-.75.1-1.018-.065-.26-.162-.472-.45-.584-.793-.11.13-.54.513-1.549.201l.015-.044c1.157.357 1.519-.214 1.522-.22l.03-.048.015.053c.104.353.315.649.578.812.26.161.826.182.958.07.144-.123-.171-.55-.275-.691-.193-.262-.413-.743-.415-.748-.002-.004-.15-.361-.28-.564-.103-.16-.298-.115-.771-.005l-.295.067c-.662.146-1.705.558-1.79.592-.032.037-.266.323-.653 1.077-.42.82-.836.987-.853.993z"/>
        <path fill="#F3BE54" d="M9.533 15.336c.147-.063.227-.095.227-.095s.306-.164.236-.398c-.063-.212-.105-.289-.105-.289s-.118-.283-.437-.213a2.65 2.65 0 0 0-.259.079s.123.026.193.13c.07.104.218.467.205.594-.014.128-.06.192-.06.192zM9.845 16.283c.147-.046.23-.081.23-.081s.299-.141.243-.379c-.055-.24-.11-.326-.11-.326s-.091-.263-.412-.203a1.027 1.027 0 0 0-.265.093s.133.011.2.117c.067.106.203.473.185.6-.018.128-.07.18-.07.18zM10.158 17.136c.17-.035.254-.1.254-.1s.235-.09.177-.356c-.05-.23-.08-.3-.08-.3s-.11-.216-.299-.213c-.096.08-.194.113-.348.156 0 0 .128.029.195.135.067.106.176.405.159.533-.018.127-.058.145-.058.145zM10.429 17.99c.184-.05.413-.197.356-.43-.054-.225-.09-.31-.09-.31s-.034-.136-.208-.209c-.095.077-.201.107-.342.15 0 0 .125.029.189.133.064.104.168.398.15.522-.018.124-.055.144-.055.144z"/>
        <path fill="#F2B643" d="M1.646 10.12l-.925.225s-.283.882.296 1.46l.877-.161-.248-1.524z"/>
        <path fill="#D89932" d="M1.83 11.254l.064.39-.877.16c-.58-.577-.296-1.459-.296-1.459s-.005.803.344 1.045l.765-.136z"/>
        <path fill="#A24038" d="M8.764 12.667l.13.588-3.13.55-.135-.514z"/>
        <path fill="#EE3E54" d="M8.721 13.597s.623 2.913 1.91 5.293l-2.47.844s-1.244-2.408-2.047-5.639l2.607-.498z"/>
        <path fill="#B9483E" d="M10.746 18.81l-2.726.943.195.582 2.76-1.006z"/>
        <path fill="#D1D5D5" d="M15.592.064s-3.71 4.692-5.884 5.875C7.532 7.124 5.565 6.954 5.565 6.954l1.1 6.217s1.98-.68 3.423-.531c1.443.149 3.42.638 8.605 3.917L15.592.064z"/>
        <path fill="#EE3E54" d="M5.565 6.954s-4.443-.09-4.017 3.638c.425 3.73 5.116 2.579 5.116 2.579l-1.1-6.217z"/>
        <path fill="#C6CBCB" d="M6.354 11.392l.31 1.779s1.98-.68 3.424-.531c1.443.149 3.42.638 8.605 3.917l-.44-2.34-3.111-1.669s-2.708-1.333-4.59-1.57c-1.883-.237-4.198.414-4.198.414z"/>
        <path fill="#C83D4F" d="M2.145 8.256c-.448.532-.718 1.282-.597 2.336.425 3.73 5.116 2.579 5.116 2.579l-.31-1.78s-.82.168-2.077-.208c-1.98-.591-2.132-2.927-2.132-2.927z"/>
        <path fill="#E2E5E7" d="M5.643 7.416l-.078-.462s1.967.17 4.143-1.015C11.882 4.756 15.592.064 15.592.064l.136.726s-2.264 2.625-2.84 3.305c-.642.759-1.797 1.916-3.323 2.598-.59.264-2.09.707-3.922.723z"/>
        <path fill="#C83D4F" d="M18.287 8.11c.827 4.566 1.012 8.347.413 8.446-.599.1-1.755-3.521-2.582-8.087-.828-4.565-1.013-8.346-.414-8.446.599-.099 1.755 3.522 2.583 8.087z"/>
        <path fill="#EE3E54" d="M18.96 12.99c.177 2.105.102 3.506-.26 3.566-.599.1-1.755-3.521-2.582-8.087-.828-4.565-1.013-8.346-.414-8.446.244-.04.581.538.95 1.547 0 0-.41-.75-.734-.636-.323.115.332 6.002.703 7.57.372 1.567 1.343 6.844 1.872 6.999.528.154.464-2.513.464-2.513z"/>
        <path fill="#F2B643" d="M17.066 10.558s1.972-.573 1.586-2.408c-.386-1.836-2.368-1.673-2.368-1.673s.299 2.016.782 4.08z"/>
        <path fill="#E56761" d="M5.646 7.415l-.081-.46S2.964 6.9 1.933 8.546c0 0 .961-1.377 3.713-1.132z"/>
        <path fill="#D89932" d="M17.67 10.28c-.327.197-.604.277-.604.278-.483-2.065-.782-4.081-.782-4.081s.087-.008.23-.002c0 0 .24 2.144.544 2.894.304.75.612.91.612.91z"/>
    </g>
</svg>
