<svg xmlns="http://www.w3.org/2000/svg" width="313" height="57" viewBox="0 0 313 57">
    <g fill="none" fill-rule="evenodd">
        <path fill="#BDC8D3" d="M21.04 36.791V55.39a1 1 0 0 0 1.089.996l138.137-12.34 130.909 12.339a1 1 0 0 0 1.093-.95l.99-21.752-272.218 3.11z"/>
        <path fill="#FFF" d="M311.501 46.636H1.5a1 1 0 0 1-.924-1.383l9.117-21.935L.575 1.384A1 1 0 0 1 1.5 0H311.5a1 1 0 0 1 .924 1.384l-9.117 21.934 9.117 21.935a1 1 0 0 1-.924 1.383z"/>
    </g>
</svg>
