<?xml version="1.0" encoding="UTF-8" standalone="no"?>
<svg width="3px" height="11px" viewBox="0 0 3 11" version="1.1" xmlns="http://www.w3.org/2000/svg" xmlns:xlink="http://www.w3.org/1999/xlink">
    <defs></defs>
    <g id="home-page" stroke="none" stroke-width="1" fill="none" fill-rule="evenodd">
        <g id="notification" transform="translate(-57.000000, -85.000000)" fill="#FFFFFF">
            <g id="Group-40" transform="translate(57.000000, 85.000000)">
                <path d="M2.35297445,7.7 L0.404431708,7.7 L0.404431708,0 L2.35297445,0 L2.35297445,7.7 Z M2.35297445,11 L0.404431708,11 L0.404431708,8.8 L2.35297445,8.8 L2.35297445,11 Z"
                      id="!"/>
            </g>
        </g>
    </g>
</svg>