{
  "type": "service_account",
  "project_id": "renewal-diary-1541699672148",
  "private_key_id": "7e08513fa07e077cd9d2a0c466828b69ef5f5802",
  "private_key": "-----BEGIN PRIVATE KEY-----\nMIIEvAIBADANBgkqhkiG9w0BAQEFAASCBKYwggSiAgEAAoIBAQCTbpyQN2bvA1q0\nBKXCzY5OjuboC/GuyrTgEV2mdYmMBWNap3GCk5+1TQqCGT11X4zRqGp/zK4iRxLc\nxZuRSDv0uOvLb0J6s4+rhPxwua/QRWB6sXHGU3E+hkJ8mRpCo69RdVqENQ/A6UhP\nBhdhzGfomjYBUs4XZkJu28mlaNVBfLHfSyMyYUknZMRrC6RH3SMiQl/lKf1UwHWh\nMfte4X0pNHmQSQG6WQuu29//1wv62upTwSMWuoOAgWt1FEQIW8Tq90j7LsLCVoOB\nn79BzL0HTpfimxyEK3wJrl3axd0t3bTtv8JeGiTCGqxyaF1IWoYSLunV8fYbqXa2\ntJ2N0YWJAgMBAAECggEADvkUWyHX8907gyiCVyro0Xn6NxsuGT+KqBj2EbeX17Ry\nYdy7OUovKvVfOarrjss8nMxbEzihKhJdduDLdbFILt3wSzxfnDY2mJz3GvxYv9up\nOpIL3oWkl3eA3XDvyvsfDTRQaY3kAtu5ABbmcq8U5yQbk6h/uBOmxTslcFrvEZPm\nF3YO12a2lQxJyeDroLL9TYHCPY2hgJPKiRpKgcHvoKFh7zYUj3gvR/cPKNUeVTyb\nY4ZH3CnidLjAY/rm7TYltH+uAzOCSoa/sUBntCtpk6FCRmp624uT923r+VOg/Ywu\njaaYRBT3OhDEDriYkDat7LsppcvMjLeadTQIrWKpSwKBgQDImEbsPnHsAAGRHakb\n+Lc/gfOKyJAGpdb6WhmPsZG4vj5OQb3eF8kBTmQRQdNOB5tBYz4DBD+3FvdLj3M/\n/2Snkwx1YEnsFGxKC022vAsxX+Sbjfv2B1TJxQFeZpF5hrjv8SboF92Ufh7Kw8AT\ny/xPMXTzVyqprrHhfCcdpAYeewKBgQC8J0kaKKo9sb36ao6cOMPFcI+Pzz0yQpPY\nzAWljgZIXGJI5mzJyoWtljGE3CVM8k8DsxTBUmur9WnMiI7E1jYPzIvjS8GolKgH\nS1QUdlP+rkx4J2Lp+OvRd6zInBLP572+aN6nB3NQ2+Kry/qoCLIOqzIx5U8LiEnx\nkmHWJJPuywKBgCC1I6tVq0Gt5pOA4Jgc/9QtHkbc2Q8cb2c21cAmVfpnmsUr1wel\nnTLHU2206/1nJBuPUQcw5Cq4Ze4+H66puAHS6k8hOixyUA3qtes70h9k4WOzzQea\nvmp/4u8/jizgmLsW+R8S9SBHSEILlQAlXKiVCdq7tcshHwQDOGWO3yiNAoGABpGY\ni8E/sEe0SjnOIMYaj5oOaQbjLA4G+1qkF9ONhJk1FTZ2NdVMNXM451qIMteCyq5F\n2zn1aFt5Bhr+YQDZglOxzo2mhSwrcZW/qbc313xeTxOQ8HowQW/cKGTKg1ej2DHx\nFAO+kuQaVcUZSySCkuCHMBbBW7W2XyitIbzFLWECgYBW/IN/ExsV9vZStuYKOnp0\nIUvnFC2KzFRZmx5z6lCBZGXgGJmZN2XRhohFexvjI1i/AMMDjmb0AB/GZd8W6h4j\nzK5asuaWYJRSb0k4L1oHrRCprdtISmTyC2SAEN5dDkFOZwu3yQ74U0yllod362pV\njM++of7oqJhojKHM3ZXz0g==\n-----END PRIVATE KEY-----\n",
  "client_email": "starting-account-vhb7fkppa6oo@renewal-diary-1541699672148.iam.gserviceaccount.com",
  "client_id": "108344301115399870652",
  "auth_uri": "https://accounts.google.com/o/oauth2/auth",
  "token_uri": "https://oauth2.googleapis.com/token",
  "auth_provider_x509_cert_url": "https://www.googleapis.com/oauth2/v1/certs",
  "client_x509_cert_url": "https://www.googleapis.com/robot/v1/metadata/x509/starting-account-vhb7fkppa6oo%40renewal-diary-1541699672148.iam.gserviceaccount.com"
}
